<svg xmlns="http://www.w3.org/2000/svg" width="16" height="16" viewBox="0 0 16 16">
 <defs>
  <style id="current-color-scheme" type="text/css">
   .ColorScheme-Text { color:#4cbe99; } .ColorScheme-Highlight { color:#4285f4; } .ColorScheme-NeutralText { color:#ff9800; } .ColorScheme-PositiveText { color:#4caf50; } .ColorScheme-NegativeText { color:#f44336; }
  </style>
 </defs>
 <path style="fill:currentColor" class="ColorScheme-Text" d="M 9 2 L 9 4 L 6 4 C 3.2473 4 1 6.2473 1 9 C 1 11.7527 3.2473 14 6 14 L 11 14 L 11 12 L 6 12 C 4.3207 12 3 10.6793 3 9 C 3 7.3207 4.3207 6 6 6 L 9 6 L 9 8 L 14 5 L 9 2 z"/>
</svg>
