<svg xmlns="http://www.w3.org/2000/svg" width="16" height="16" version="1.1">
 <defs>
  <style id="current-color-scheme" type="text/css">
   .ColorScheme-Text { color:#4cbe99; } .ColorScheme-Highlight { color:#4285f4; } .ColorScheme-NeutralText { color:#ff9800; } .ColorScheme-PositiveText { color:#4caf50; } .ColorScheme-NegativeText { color:#f44336; }
  </style>
 </defs>
 <path style="fill:currentColor" class="ColorScheme-Text" d="M 1,1 V 3 H 15 V 1 Z M 1,5 V 7 H 9 V 5 Z M 15,5 10,8 15,11 Z M 1,9 V 11 H 9 V 9 Z M 1,13 V 15 H 15 V 13 Z"/>
</svg>
