<svg xmlns="http://www.w3.org/2000/svg" width="16" height="16" version="1.1">
 <defs>
  <style id="current-color-scheme" type="text/css">
   .ColorScheme-Text { color:#4cbe99; } .ColorScheme-Highlight { color:#4285f4; } .ColorScheme-NeutralText { color:#ff9800; } .ColorScheme-PositiveText { color:#4caf50; } .ColorScheme-NegativeText { color:#f44336; }
  </style>
 </defs>
 <path style="fill:currentColor" class="ColorScheme-Text" d="M 6 2 C 0 2 0 3 0 8 C 0 13 0 14 6 14 L 10 14 C 16 14 16 13 16 8 C 16 3 16 2 10 2 L 6 2 z M 6 5.25 L 10 8 L 6 10.75 L 6 5.25 z"/>
</svg>
