<svg xmlns="http://www.w3.org/2000/svg" width="16" height="16" version="1.1">
 <defs>
  <style id="current-color-scheme" type="text/css">
   .ColorScheme-Text { color:#4cbe99; } .ColorScheme-Highlight { color:#4285f4; } .ColorScheme-NeutralText { color:#ff9800; } .ColorScheme-PositiveText { color:#4caf50; } .ColorScheme-NegativeText { color:#f44336; }
  </style>
 </defs>
 <path style="fill:currentColor" class="ColorScheme-Text" d="M 2,11 V 16 H 7 V 15 H 3 V 11 Z M 11,1 V 2 H 15 V 6 H 16 V 1 Z M 2.5,8 5,4 H 3 V 2 H 7 V 1 H 2 V 4 H 0 Z M 15,11 V 15 H 11 V 16 H 16 V 11 Z M 9,7 V 8 H 8 V 9 H 9 V 10 H 10 V 9 H 11 V 8 H 10 V 7 Z"/>
</svg>
