<svg xmlns="http://www.w3.org/2000/svg" width="16" height="16" version="1.1">
 <defs>
  <style id="current-color-scheme" type="text/css">
   .ColorScheme-Text { color:#4cbe99; } .ColorScheme-Highlight { color:#4285f4; } .ColorScheme-NeutralText { color:#ff9800; } .ColorScheme-PositiveText { color:#4caf50; } .ColorScheme-NegativeText { color:#f44336; }
  </style>
 </defs>
 <path style="fill:currentColor" class="ColorScheme-Text" d="M 4 1 C 4 1 2 1 2 3 L 2 8 L 9 15 L 16 8 L 9 1 L 4 1 z M 5 3 A 1 1 0 0 1 6 4 A 1 1 0 0 1 5 5 A 1 1 0 0 1 4 4 A 1 1 0 0 1 5 3 z M 14.980469 11.003906 C 14.938612 11.012276 14.894257 11.03544 14.849609 11.080078 L 14.214844 11.714844 L 15.285156 12.785156 L 15.919922 12.150391 C 16.098516 11.971822 15.919922 11.792969 15.919922 11.792969 L 15.207031 11.080078 C 15.207031 11.080078 15.106043 10.978797 14.980469 11.003906 z M 13.857422 12.072266 L 11 14.927734 L 11 16 L 12.072266 16 L 14.927734 13.142578 L 13.857422 12.072266 z"/>
</svg>
