<svg xmlns="http://www.w3.org/2000/svg" width="24" height="24" viewBox="0 0 24 24">
 <defs>
  <style id="current-color-scheme" type="text/css">
   .ColorScheme-Text { color:#4cbe99; } .ColorScheme-Highlight { color:#4285f4; } .ColorScheme-NeutralText { color:#ff9800; } .ColorScheme-PositiveText { color:#4caf50; } .ColorScheme-NegativeText { color:#f44336; }
  </style>
 </defs>
 <path style="fill:currentColor" class="ColorScheme-Text" d="m11 1l-3 4h4l3-4h-4zm-8 2v8l-1.3438-1.4062-0.6562 1.4062 3 3 3-3-0.6562-1.4062-1.3438 1.4062v-8h-2zm8 3l-3 4h4l3-4h-4zm-2 5l-3 4h6l3-4h-6z" transform="translate(4 4)"/>
</svg>
