<svg xmlns="http://www.w3.org/2000/svg" width="16" height="16" version="1.1">
 <path style="fill:#4cbe99" d="m 6,0.99999965 c -0.4,0 -0.399445,7.0705e-4 -0.779297,0.40429695 L 4.136719,2.9999996 H 1.59961 C 0.71960895,2.9999996 -4.9999997e-8,3.6561629 -4.9999997e-8,4.5117184 V 13.445312 C -4.9999997e-8,14.300868 0.71960895,15 1.59961,15 H 14.400391 C 15.280391,15 16,14.300869 16,13.445312 V 4.5117184 C 16,3.6561628 15.280391,2.9999996 14.400391,2.9999996 h -2.53711 L 10.765625,1.3886716 C 10.400447,1.0006727 10.4,0.99999965 10,0.99999965 Z m 8.488281,2.99999995 a 0.5,0.5 0 0 1 0.01172,0 0.5,0.5 0 0 1 0.5,0.5 0.5,0.5 0 0 1 -0.5,0.5 0.5,0.5 0 0 1 -0.5,-0.5 0.5,0.5 0 0 1 0.488281,-0.5 z m -6.548828,1 a 4,4 0 0 1 0.06055,0 4,4 0 0 1 4,4 4,4 0 0 1 -4,4.0000004 4,4 0 0 1 -4,-4.0000004 4,4 0 0 1 3.939453,-4 z m 0.01172,2 a 2,2 0 0 0 -1.951172,2 2,2 0 0 0 2,1.9999994 2,2 0 0 0 2,-1.9999994 2,2 0 0 0 -2,-2 2,2 0 0 0 -0.04883,0 z"/>
</svg>
