<svg xmlns="http://www.w3.org/2000/svg" width="24" height="24" version="1.1">
 <defs>
  <style id="current-color-scheme" type="text/css">
   .ColorScheme-Text { color:#4cbe99; } .ColorScheme-Highlight { color:#4285f4; } .ColorScheme-NeutralText { color:#ff9800; } .ColorScheme-PositiveText { color:#4caf50; } .ColorScheme-NegativeText { color:#f44336; }
  </style>
 </defs>
 <g transform="translate(-80 -792.34)">
  <path style="fill:currentColor" class="ColorScheme-Text" d="m92.5 796.36c-3.047 0-5.5 2.676-5.5 6v4c0 3.324 2.453 6 5.5 6 0.16869 0 0.33527-0.0113 0.5-0.0273v-2.3164l-0.03125 0.0312c-0.0252 0.0599-0.0798 0.11106-0.125 0.15625-0.0904 0.0904-0.20525 0.15625-0.34375 0.15625h-0.5v-4.9375l-2.1562 1.7812c-0.0905 0.0905-0.20568 0.15625-0.34375 0.15625h-0.5v-0.5c0-0.15322 0.079-0.28328 0.1875-0.375l2.5625-2.125-2.4375-2.0312c-0.0467-0.0197-0.0868-0.0616-0.125-0.0937-0.109-0.08-0.188-0.21-0.188-0.37v-0.5h0.5c0.12292 0 0.22543 0.0514 0.3125 0.125 0.0107 0.009 0.02135 0.0213 0.03125 0.0312l2.1562 1.7813v-4.9375h0.5c0.20775 0 0.39305 0.13292 0.46875 0.3125l2.875 2.8438 0.40625 0.375-0.4375 0.34375-2.5625 2.125 1.4121 1.1719c0.54576-0.70619 1.3833-1.1738 2.3379-1.1738 0.35278 0 0.68653 0.0726 1 0.1875v-2.1856c0-3.324-2.453-6-5.5-6zm0.5 3.6875v3.25l1.7812-1.4688-1.781-1.78zm4 5.3106c-1.108 0-2 0.91085-2 2.0312v0.96875h-1v4h6v-4h-1v-0.96875c0-1.1199-0.892-2.0312-2-2.0312zm-4 0.0645v1.9356h1.0137c0.004-0.33317 0.0738-0.65164 0.17773-0.95312l-1.192-0.98zm4 0.9355c0.554 0 1 0.4424 1 1v1h-2v-1c0-0.5576 0.446-1 1-1z"/>
 </g>
</svg>
