<svg xmlns="http://www.w3.org/2000/svg" width="24" height="24" version="1.1">
 <defs>
  <style id="current-color-scheme" type="text/css">
   .ColorScheme-Text { color:#4cbe99; } .ColorScheme-Highlight { color:#4285f4; } .ColorScheme-NeutralText { color:#ff9800; } .ColorScheme-PositiveText { color:#4caf50; } .ColorScheme-NegativeText { color:#f44336; }
  </style>
 </defs>
 <g transform="matrix(0 .34783 -.34783 0 20.354 3.6436)">
  <path style="fill:currentColor" class="ColorScheme-Text" d="m-25.406 12c-4.4184 0-8 3.5816-8 8s3.5816 8 8 8 8-3.5816 8-8-3.5816-8-8-8zm0 2.5c2.304 0 4.3675 1.303 5.2812 3.3125l1.2188-0.46875-1 3.4688-3.3125-1.8438 1.2812-0.5c-0.62086-1.3102-1.9541-2.125-3.4688-2.125-1.5726 0-2.9961 0.93957-3.5625 2.3438l-1.781-0.687c0.8448-2.1035 2.9848-3.5 5.3438-3.5zm-5.5 4.7188 3.3125 1.7812-1.2812 0.5c0.61336 1.3047 1.9641 2.1562 3.4688 2.1562 1.5756 0 2.9786-0.91032 3.5625-2.3125l1.7812 0.6875c-0.8768 2.103-2.9793 3.4688-5.3438 3.4688-2.2925 0-4.387-1.3392-5.2812-3.3438l-1.2188 0.4375 1-3.375z" transform="matrix(2.875 0 0 2.875 97.068 -33.481)"/>
 </g>
</svg>
