<svg xmlns="http://www.w3.org/2000/svg" width="24" height="24" version="1.1">
 <defs>
  <style id="current-color-scheme" type="text/css">
   .ColorScheme-Text { color:#4cbe99; } .ColorScheme-Highlight { color:#4285f4; } .ColorScheme-NeutralText { color:#ff9800; } .ColorScheme-PositiveText { color:#4caf50; } .ColorScheme-NegativeText { color:#f44336; }
  </style>
 </defs>
 <path style="fill:currentColor" class="ColorScheme-Text" d="M 7.8460481,4.0009002 C 6.3460808,4.0672355 4.6486618,5.9144934 4.1465719,8.4876522 4.0271148,9.1324103 4.0031728,9.6494903 4,10.231957 c 0.0014,0.05291 0.00146,0.104962 0.00391,0.158219 0.2025066,5.229335 4.463059,9.452513 9.708926,9.604423 0.02675,0.0011 0.05151,0.0011 0.07817,0.002 0.343915,0.01344 0.735616,-0.01587 1.049454,-0.03711 3.126398,-0.30504 5.383977,-2.371319 5.141745,-4.09609 -1.532025,1.364752 -3.510614,2.134374 -5.575597,2.136874 -4.641966,0 -8.4054124,-3.761553 -8.4054124,-8.4011837 9.724e-4,-2.0658087 0.7715022,-4.0459086 2.137996,-5.578656 -0.096905,-0.01147 -0.1940677,-0.023915 -0.2931435,-0.019533 z"/>
 <path style="opacity:.35;fill:currentColor" class="ColorScheme-Text" d="M 9.0930477,4.1042532 8.5771144,4.8250244 C 7.5735509,6.1351286 7.0009334,7.7297717 7.0000001,9.3996753 v 0.0019 C 7.0004281,13.608495 10.395062,17 14.604153,17 c 1.665272,-0.0022 3.257727,-0.568758 4.565228,-1.566555 l 0.699636,-0.550833 C 19.754772,14.71651 19.619694,14.554402 19.441027,14.406008 18.237006,13.405754 16.017764,12.69089 13.695407,10.390003 11.245718,7.9622752 10.549234,5.6620327 9.5229921,4.475382 9.3892494,4.320745 9.2431105,4.2042999 9.0930477,4.1042532 Z"/>
</svg>
