<svg xmlns="http://www.w3.org/2000/svg" width="24" height="24" version="1.1">
 <defs>
  <style id="current-color-scheme" type="text/css">
   .ColorScheme-Text { color:#4cbe99; } .ColorScheme-Highlight { color:#4285f4; } .ColorScheme-NeutralText { color:#ff9800; } .ColorScheme-PositiveText { color:#4caf50; } .ColorScheme-NegativeText { color:#f44336; }
  </style>
 </defs>
 <path style="fill:currentColor" class="ColorScheme-Text" d="M 17.999817,4 C 13.095154,4 8.9290699,7.2299795 7.5154415,11.673828 A 5,5 0 0 1 9.929504,11.005859 C 11.397635,8.036477 14.453903,6 17.999817,6 Z m 0,4 c -2.546131,0 -4.782678,1.372955 -6.007813,3.416016 A 5,5 0 0 1 13.628723,12.5625 C 14.480561,11.030668 16.113357,10 17.999817,10 Z m -1.5,4 a 1.5,1.5 0 0 0 -1.5,1.5 1.5,1.5 0 0 0 1.5,1.5 1.5,1.5 0 0 0 1.5,-1.5 1.5,1.5 0 0 0 -1.5,-1.5 z m -1.5,4 v 4 h 3 v -4 z"/>
 <path style="fill:currentColor" class="ColorScheme-NegativeText" d="M 9.9900509,12 C 9.3135615,12.001344 8.6274785,12.174748 7.9998165,12.537109 6.0868405,13.641449 5.4325559,16.087251 6.5369259,18 c 1.104371,1.912649 3.5500151,2.567231 5.4628911,1.462891 1.912976,-1.104339 2.567262,-3.548188 1.46289,-5.460938 -0.690232,-1.195406 -1.902854,-1.901671 -3.183594,-1.992187 -0.09605,-0.0068 -0.192421,-0.01 -0.2890621,-0.0098 z m -0.9902344,1 h 2.0000005 v 4 H 8.9998165 Z m 0,5 h 2.0000005 v 1 H 8.9998165 Z"/>
</svg>
