<svg xmlns="http://www.w3.org/2000/svg" width="24" height="24" version="1.1">
 <defs>
  <style id="current-color-scheme" type="text/css">
   .ColorScheme-Text { color:#4cbe99; } .ColorScheme-Highlight { color:#4285f4; } .ColorScheme-NeutralText { color:#ff9800; } .ColorScheme-PositiveText { color:#4caf50; } .ColorScheme-NegativeText { color:#f44336; }
  </style>
 </defs>
 <circle style="fill:currentColor" class="ColorScheme-Highlight" cx="20" cy="4" r="2"/>
 <path style="fill:currentColor" class="ColorScheme-Text" d="m 12,3.9999998 c -4.432,0 -8,3.568 -8,8.0000002 0,4.432 3.568,8 8,8 4.432,0 8,-3.568 8,-8 0,-4.4320002 -3.568,-8.0000002 -8,-8.0000002 z m 0,2 c 3.313715,0 6,2.6862864 6,6.0000002 0,3.313716 -2.686285,6 -6,6 C 8.686286,18 6,15.313716 6,12 6,8.6862862 8.686286,5.9999998 12,5.9999998 Z m -0.601563,1.1464844 c -0.175894,0.01788 -0.351131,0.031582 -0.521484,0.066406 -0.342001,0.06995 -0.666186,0.1600388 -0.980469,0.2929688 -1.502036,0.6352164 -2.635316,1.95423 -3.039062,3.5625 0.01035,0.0113 0.02127,0.02045 0.0332,0.0332 0.281796,0.300972 1.01894,0.715969 1.566406,0.914063 0.299393,0.108357 0.879545,0.278235 1.275391,0.359375 0.395872,0.08099 0.660093,0.160822 0.621093,0.164062 -0.03899,0.0032 -0.216569,0.134724 -0.392578,0.292969 -0.335728,0.301841 -0.507253,0.569161 -0.652343,1.046875 -0.07961,0.261563 -0.07237,0.348647 0.03125,0.490235 0.06253,0.08532 0.342989,0.28488 0.621093,0.457031 0.278115,0.172163 0.604713,0.409053 0.720703,0.521484 0.432103,0.418772 0.716797,1.168962 0.716797,1.896485 0,0.186162 0.0196,0.283821 0.0332,0.326171 0.03534,0.0032 0.06221,-0.0032 0.09766,0 0.07999,-0.03085 0.201931,-0.06664 0.392578,-0.162109 1.597294,-0.799587 2.325847,-1.833363 2.253907,-3.203125 -0.0573,-1.092343 -0.569146,-1.489407 -2.646484,-1.929688 -1.529661,-0.324247 -2.351563,-0.873221 -2.351563,-1.566406 0,-0.182795 0.06201,-0.29056 0.261719,-0.490234 0.214645,-0.21466 0.257909,-0.228472 0.423828,-0.195313 0.10566,0.02112 0.378107,0.160056 0.587891,0.326172 0.472234,0.373947 0.703029,0.521485 0.947265,0.521485 0.10404,0 0.197266,-0.01569 0.197266,-0.03125 0,-0.01558 -0.07874,-0.135762 -0.164063,-0.261719 -0.471494,-0.694711 -0.441615,-1.9956441 0.06641,-3.105469 0.07978,-0.1742303 0.139249,-0.2927278 0.130859,-0.3261718 -0.07058,0.0042 -0.160516,-0.00732 -0.230469,0 z m 4.902344,2.4511718 c -0.09505,-0.05866 -0.869255,0.754261 -1.046875,1.111328 -0.352206,0.708097 -0.219731,1.171352 0.621094,2.058594 0.2913,0.307359 0.642213,0.719641 0.751953,0.914062 0.109724,0.194455 0.204749,0.355946 0.230469,0.328126 0.02572,-0.02781 0.101769,-0.253327 0.162109,-0.492188 0.158528,-0.627585 0.170897,-1.719811 0,-2.351563 -0.132366,-0.489352 -0.595943,-1.492435 -0.71875,-1.568359 z"/>
</svg>
