<svg xmlns="http://www.w3.org/2000/svg" width="24" height="24" version="1.1">
 <defs>
  <style id="current-color-scheme" type="text/css">
   .ColorScheme-Text { color:#4cbe99; } .ColorScheme-Highlight { color:#4285f4; } .ColorScheme-NeutralText { color:#ff9800; } .ColorScheme-PositiveText { color:#4caf50; } .ColorScheme-NegativeText { color:#f44336; }
  </style>
 </defs>
 <g transform="matrix(1,0,0,1,4,4)">
  <path d="M 2,1 C 1.446,1 1,1.446 1,2 V 14 C 1,14.554 1.446,15 2,15 H 5 V 5 H 10 V 1 Z M 11,1 V 15 H 14 C 14.554,15 15,14.554 15,14 V 2 C 15,1.446 14.554,1 14,1 Z M 6,6 V 15 H 10 V 6 Z" style="fill:currentColor" class="ColorScheme-Text"/>
 </g>
</svg>
