<svg xmlns="http://www.w3.org/2000/svg" width="24" height="24" version="1.1">
 <defs>
  <style id="current-color-scheme" type="text/css">
   .ColorScheme-Text { color:#4cbe99; } .ColorScheme-Highlight { color:#4285f4; } .ColorScheme-NeutralText { color:#ff9800; } .ColorScheme-PositiveText { color:#4caf50; } .ColorScheme-NegativeText { color:#f44336; }
  </style>
 </defs>
 <path style="fill:currentColor" class="ColorScheme-Text" d="M 11.818359,4.0097656 A 7.9999999,7.9999999 0 0 0 4,12 7.9999999,7.9999999 0 0 0 12,20 7.9999999,7.9999999 0 0 0 20,12 7.9999999,7.9999999 0 0 0 16.556641,5.4492188 V 7.0996094 A 6,6 0 0 1 18,11 6,6 0 0 1 12,17 6,6 0 0 1 6,11 6,6 0 0 1 10.894531,5.1152344 C 11.183867,4.7693337 11.511207,4.3783633 11.654297,4.203125 11.711287,4.133326 11.763306,4.0747787 11.818359,4.0097656 Z M 13.677734,5 c -0.01468,0.00179 -0.02668,0.00645 -0.03711,0.011719 -0.03696,0.018692 -0.21388,0.2412063 -0.394531,0.4941406 -0.18065,0.2529337 -0.575452,0.7935873 -0.876953,1.203125 -0.3015,0.4095372 -0.87451,1.1946183 -1.271485,1.7421875 -0.779889,1.0757379 -0.90473,1.2918089 -1.033203,1.8027339 -0.080235,0.319106 -0.087296,0.835403 -0.01563,1.134766 0.196497,0.820672 0.854092,1.435708 1.701172,1.59375 0.0385,0.0072 0.171727,0.01564 0.294922,0.01758 0.513279,0.0085 0.95029,-0.190875 1.320312,-0.601562 0.195018,-0.216451 0.249267,-0.301596 0.369141,-0.578126 0.07724,-0.17817 0.161159,-0.414292 0.1875,-0.52539 0.06758,-0.284957 0.09959,-0.873431 0.06445,-2.220703 V 5.1484375 C 13.970226,5.055643 13.780522,4.9874569 13.677734,5 Z M 21,17 a 2,2 0 0 0 -2,2 2,2 0 0 0 2,2 2,2 0 0 0 2,-2 2,2 0 0 0 -2,-2 z"/>
</svg>
