<svg xmlns="http://www.w3.org/2000/svg" width="24" height="24" version="1.1">
 <defs>
  <style id="current-color-scheme" type="text/css">
   .ColorScheme-Text { color:#4cbe99; } .ColorScheme-Highlight { color:#4285f4; } .ColorScheme-NeutralText { color:#ff9800; } .ColorScheme-PositiveText { color:#4caf50; } .ColorScheme-NegativeText { color:#f44336; }
  </style>
 </defs>
 <path style="fill:currentColor" class="ColorScheme-Text" d="m 12,4 c -4.432,0 -8,3.568 -8,8 0,4.432 3.568,8 8,8 4.432,0 8,-3.568 8,-8 0,-4.432 -3.568,-8 -8,-8 z m 0,2 c 3.324,0 6,2.676 6,6 0,3.324 -2.676,6 -6,6 C 8.676,18 6,15.324 6,12 6,8.676 8.676,6 12,6 Z M 9.3164062,8 8.7753906,8.3144531 8.6015625,8.4140625 8.0019531,8.7597656 8,8.7617188 8.00195,8.7636688 V 9.320313 15.199219 L 9,16 10,15.199219 V 10.96875 l 2,1.171875 2,-1.171875 v 4.230469 L 15,16 15.998047,15.199219 V 9.320313 8.7636719 L 16,8.7617188 15.998047,8.7597656 15.398438,8.4140625 15.224609,8.3144531 14.683594,8 12,9.697266 Z"/>
</svg>
