<svg xmlns="http://www.w3.org/2000/svg" width="24" height="24" version="1.1">
 <defs>
  <style id="current-color-scheme" type="text/css">
   .ColorScheme-Text { color:#4cbe99; } .ColorScheme-Highlight { color:#4285f4; } .ColorScheme-NeutralText { color:#ff9800; } .ColorScheme-PositiveText { color:#4caf50; } .ColorScheme-NegativeText { color:#f44336; }
  </style>
 </defs>
 <g transform="translate(0 -1028.4)">
  <path style="fill:currentColor" class="ColorScheme-Text" d="m12 1031.4c-2.1276 0-4.0845 0.7344-5.625 1.9688l-1.8125-1.8125-1.4062 1.4062 1.8125 1.8125c-1.2343 1.5405-1.9688 3.4974-1.9688 5.625 0 4.9706 4.0294 9 9 9s9-4.0294 9-9c0-2.1276-0.73441-4.0845-1.9688-5.625l1.8125-1.8125-1.4063-1.4062-1.8125 1.8125c-1.5405-1.2344-3.4974-1.9688-5.625-1.9688zm0 2c3.866 0 7 3.134 7 7s-3.134 7-7 7-7-3.134-7-7 3.134-7 7-7zm0 1v6l-1.248-5.8691a6 6 0 0 0 -4.6777 6.8086 6 6 0 0 0 6.5527 5.0273 6 6 0 0 0 5.3652 -6.2812 6 6 0 0 0 -5.9922 -5.6856z"/>
 </g>
</svg>
