<svg xmlns="http://www.w3.org/2000/svg" width="24" height="24" version="1">
 <defs>
  <style id="current-color-scheme" type="text/css">
   .ColorScheme-Text { color:#4cbe99; } .ColorScheme-Highlight { color:#4285f4; } .ColorScheme-NeutralText { color:#ff9800; } .ColorScheme-PositiveText { color:#4caf50; } .ColorScheme-NegativeText { color:#f44336; }
  </style>
 </defs>
 <path style="fill-rule:evenodd;fill:currentColor" class="ColorScheme-Text" d="m7.5 4c-0.831 0-1.5 0.669-1.5 1.5v13c0 0.831 0.669 1.5 1.5 1.5h8c0.831 0 1.5-0.669 1.5-1.5v-13c0-0.831-0.669-1.5-1.5-1.5h-8zm1.5 2c0.5524 0 1 0.4478 1 1s-0.4476 1-1 1-1.0002-0.4478-1-1c-0.0002-0.5522 0.4476-1 1-1zm5 0c0.55243 0 1.000202 0.44778 1 1 0.0002 0.55222-0.44757 1-1 1s-1.000202-0.44778-1-1c-0.0002-0.55222 0.44757-1 1-1zm-2.5 5c1.933 0 3.5 1.567 3.5 3.5s-1.567 3.5-3.5 3.5c-1.9334 0-3.5005-1.567-3.5-3.5-0.0005-1.933 1.5666-3.5 3.5-3.5zm0 2c-0.828 0-1.5 0.672-1.5 1.5s0.672 1.5 1.5 1.5 1.5-0.672 1.5-1.5-0.672-1.5-1.5-1.5zm7.123047 2a0.60877104 0.68700394 0 0 0 -0.623047 0.6875v1.8125 1.8125a0.60877104 0.68700394 0 0 0 0.912109 0.595703l1.392579-0.90625 1.390624-0.90625a0.60877104 0.68700394 0 0 0 0 -1.189453l-1.390624-0.908203-1.392579-0.90625a0.60877104 0.68700394 0 0 0 -0.289062 -0.091797z"/>
</svg>
