<svg xmlns="http://www.w3.org/2000/svg" width="24" height="24" version="1.1">
 <defs>
  <style id="current-color-scheme" type="text/css">
   .ColorScheme-Text { color:#4cbe99; } .ColorScheme-Highlight { color:#4285f4; } .ColorScheme-NeutralText { color:#ff9800; } .ColorScheme-PositiveText { color:#4caf50; } .ColorScheme-NegativeText { color:#f44336; }
  </style>
 </defs>
 <path style="fill:currentColor" class="ColorScheme-Text" d="M 11,4 V 6.0859375 A 6,6 0 0 1 12,6 6,6 0 0 1 13,6.0898438 V 4 Z M 7.0507812,5.6367188 5.6367188,7.0507812 7.1132812,8.5273438 A 6,6 0 0 1 8.5292969,7.1152344 Z m 9.8984378,0 -1.476563,1.4765624 a 6,6 0 0 1 1.41211,1.4160157 L 18.363281,7.0507812 Z M 12,7 a 5,5 0 0 0 -5,5 5,5 0 0 0 0.1464844,1.175781 c 0.0073,-0.0017 0.014172,-0.0042 0.021484,-0.0059 C 7.5797152,10.827355 9.5442774,9 12,9 c 2.072335,0.0018 3.855484,1.320297 4.595703,3.212891 0.134007,0.03469 0.263609,0.07922 0.392578,0.125 A 5,5 0 0 0 17,12 5,5 0 0 0 12,7 Z m 0,3 a 4,4 0 0 0 -4,4 3,3 0 0 0 -3,3 3,3 0 0 0 3,3 H 15.5 16 V 19.96094 A 3.5,3.5 0 0 0 19,16.5 3.5,3.5 0 0 0 15.875,13.021484 4,4 0 0 0 12,10 Z m -8,1 v 2 H 6.0859375 A 6,6 0 0 1 6,12 6,6 0 0 1 6.0898438,11 Z m 13.914062,0 A 6,6 0 0 1 18,12 6,6 0 0 1 17.910156,13 H 20 v -2 z"/>
</svg>
