<svg xmlns="http://www.w3.org/2000/svg" width="16" height="16" version="1.1">
 <defs>
  <style id="current-color-scheme" type="text/css">
   .ColorScheme-Text { color:#4cbe99; } .ColorScheme-Highlight { color:#4285f4; } .ColorScheme-NeutralText { color:#ff9800; } .ColorScheme-PositiveText { color:#4caf50; } .ColorScheme-NegativeText { color:#f44336; }
  </style>
 </defs>
 <path style="fill:currentColor" class="ColorScheme-Text" d="M 6.172,1 C 6.172,1 6.996,1.465 6.414,2.688 5.533,4.53 7.227,4.951 7.227,4.951 7.227,4.951 6.689,4.519 7.406,2.998 8.199,1.313 6.172,1 6.172,1 Z M 9.371,2.84 C 9.371,2.84 7.729,3.47 8.787,5.191 9.487,6.332 8.711,6.898 8.711,6.898 8.711,6.898 10.696,6.335 9.738,4.76 8.878,3.336 9.371,2.84 9.371,2.84 Z M 4.643,2.887 C 4.643,2.887 3.205,3.982 4.629,5.328 5.57,6.224 4.953,7 4.953,7 4.953,7 6.736,5.867 5.447,4.629 4.284,3.512 4.643,2.887 4.643,2.887 Z M 4.953,7 H 1 L 3,15 H 11 L 11.275,13.902 C 11.508,13.96 11.749,14 12,14 13.657,14 15,12.657 15,11 15,9.594 14.03,8.423 12.725,8.098 L 13,7 Z M 12.484,9.062 A 1,2 15 0 1 12.518,9.068 1,2 15 0 1 12.967,11.26 1,2 15 0 1 11.516,12.938 Z"/>
</svg>
