<svg xmlns="http://www.w3.org/2000/svg" width="16" height="16" version="1.1">
 <defs>
  <style id="current-color-scheme" type="text/css">
   .ColorScheme-Text { color:#4cbe99; } .ColorScheme-Highlight { color:#4285f4; } .ColorScheme-NeutralText { color:#ff9800; } .ColorScheme-PositiveText { color:#4caf50; } .ColorScheme-NegativeText { color:#f44336; }
  </style>
 </defs>
 <path style="fill:currentColor" class="ColorScheme-Text" d="M 7.90625,7.8624652e-5 A 7,7 0 0 0 1,7.0000786 7,7 0 0 0 5.0292969,13.337969 C 3.9574403,13.695951 3,14.106353 3,14.44539 v 0.777344 c 0,0.430889 0.3723178,0.777344 0.8339844,0.777344 H 12.166016 C 12.627683,16.000078 13,15.653623 13,15.222734 V 14.44539 c 0,-0.339037 -0.95744,-0.749439 -2.029297,-1.107421 A 7,7 0 0 0 15,7.0000786 7,7 0 0 0 8,7.8624652e-5 a 7,7 0 0 0 -0.09375,0 z M 7.939453,3.0000786 a 4,4 0 0 1 0.060547,0 4,4 0 0 1 4,4 4,4 0 0 1 -4,4.0000004 4,4 0 0 1 -4,-4.0000004 4,4 0 0 1 3.939453,-4 z m 0.011719,2 a 2,2 0 0 0 -1.951172,2 2,2 0 0 0 2,2 2,2 0 0 0 2,-2 2,2 0 0 0 -2,-2 2,2 0 0 0 -0.048828,0 z"/>
</svg>
