<svg xmlns="http://www.w3.org/2000/svg" width="16" height="16" version="1.1">
 <path style="fill:#4cbe99" d="M 4,0 V 1 H 12 V 0 Z M 4,2 V 3 H 12 V 2 Z M 4,4 V 9 H 12 V 4 Z M 5,5 8,6.5 11,5 V 6 L 8,7.5 5,6 Z"/>
 <path style="fill:#4cbe99" d="M 2,1 C 1,1 1,2 1,2 V 14 C 1,14 1,15 2,15 H 14 C 15,15 15,14 15,14 V 2 C 15,2 15,1 14,1 H 13 V 10 H 10 C 10,11.11 9.11,12 8,12 6.89,12 6,11.11 6,10 H 3 V 1 Z"/>
</svg>
