<svg xmlns="http://www.w3.org/2000/svg" width="22" height="22" version="1.1">
 <defs>
  <style id="current-color-scheme" type="text/css">
   .ColorScheme-Text { color:#4cbe99; } .ColorScheme-Highlight { color:#4285f4; } .ColorScheme-NeutralText { color:#ff9800; } .ColorScheme-PositiveText { color:#4caf50; } .ColorScheme-NegativeText { color:#f44336; }
  </style>
 </defs>
 <path style="opacity:0.35;fill:currentColor" class="ColorScheme-Text" d="m 5,10 c -0.554,0 -1,0.446 -1,1 v 5 c 0,0.554 0.446,1 1,1 h 8 c 0.554,0 1,-0.446 1,-1 v -5 c 0,-0.554 -0.446,-1 -1,-1 z m 4,2 H 9.6660156 L 11,13.333984 12.333984,12 H 13 v 0.666016 L 11.666016,14 13,15.333984 V 16 H 12.333984 L 11,14.666016 9.6660156,16 H 9 V 15.333984 L 10.333984,14 9,12.666016 Z"/>
 <path style="fill:currentColor" class="ColorScheme-Text" d="M 9,5 C 8.446,5 8,5.446 8,6 v 3 h 5 c 1.090702,0 2,0.9092983 2,2 v 1 h 2 c 0.554,0 1,-0.446 1,-1 V 6 C 18,5.446 17.554,5 17,5 Z"/>
</svg>
