<svg xmlns="http://www.w3.org/2000/svg" width="22" height="22" version="1.1">
 <defs>
  <style id="current-color-scheme" type="text/css">
   .ColorScheme-Text { color:#4cbe99; } .ColorScheme-Highlight { color:#4285f4; } .ColorScheme-NeutralText { color:#ff9800; } .ColorScheme-PositiveText { color:#4caf50; } .ColorScheme-NegativeText { color:#f44336; }
  </style>
 </defs>
 <g transform="translate(3,3)">
  <path style="opacity:.35;fill:currentColor" class="ColorScheme-Text" d="M 3 0 C 2.446 0 2 0.446 2 1 L 2 7 L 13 7 C 14.090703 7 15 7.9092972 15 9 L 15 15 C 15 15.363969 14.892261 15.703481 14.716797 16 L 15 16 C 15.554 16 16 15.554 16 15 L 16 1 C 16 0.446 15.554 0 15 0 L 3 0 z M 4 2 L 11 2 L 11 3 L 4 3 L 4 2 z M 12 2 L 14 2 L 14 3 L 12 3 L 12 2 z M 4 4 L 8 4 L 8 5 L 4 5 L 4 4 z M 1 8 C 0.446 8 0 8.446 0 9 L 0 15 C 0 15.554 0.446 16 1 16 L 13 16 C 13.554 16 14 15.554 14 15 L 14 9 C 14 8.446 13.554 8 13 8 L 1 8 z M 3.9667969 9.5390625 C 4.0855269 9.5408605 4.2031963 9.5625799 4.3164062 9.6074219 C 4.7692663 9.7868219 5.0237467 10.239154 5.0898438 10.746094 C 5.1223247 10.995204 5.0852254 11.202277 5.0527344 11.373047 C 5.0385574 11.447557 5.0343464 11.453529 5.0214844 11.505859 C 5.0272794 11.505459 5.0430625 11.504213 5.0390625 11.507812 C 5.0345325 11.511902 5.193173 11.291239 5.3457031 11.074219 C 5.4219731 10.965709 5.50525 10.853381 5.625 10.744141 C 5.74475 10.634901 5.9298456 10.500539 6.1972656 10.511719 C 6.4173657 10.520919 6.5230857 10.613164 6.6035156 10.677734 C 6.6839456 10.742314 6.7412261 10.805231 6.7988281 10.869141 C 6.9140281 10.996971 7.0224459 11.131748 7.1230469 11.236328 C 7.2068059 11.3234 7.2323512 11.376516 7.3320312 11.347656 C 7.4264173 11.265204 7.4606275 11.222855 7.4921875 11.171875 C 7.5792075 11.062165 7.6566712 10.914696 7.7695312 10.822266 C 7.8988612 10.745356 8.1646963 10.748503 8.2851562 10.814453 C 8.4056063 10.880403 8.4384659 10.935186 8.4667969 10.972656 C 8.5234579 11.047586 8.5420719 11.088228 8.5761719 11.148438 C 8.6443619 11.268847 8.7429412 11.445692 8.9257812 11.726562 C 9.0774512 11.958363 9.0117559 12.269282 8.7792969 12.419922 C 8.5474969 12.571592 8.2365775 12.505896 8.0859375 12.273438 C 8.0304075 12.188136 8.0220456 12.168236 7.9785156 12.097656 C 7.9364656 12.136516 7.9284262 12.168231 7.8789062 12.207031 C 7.6174963 12.411841 7.2257004 12.442797 6.96875 12.341797 C 6.71179 12.240797 6.5460838 12.079128 6.4023438 11.929688 C 6.3009337 11.824258 6.2309601 11.739377 6.1582031 11.654297 C 6.0429031 11.820137 5.8952494 12.38893 5.0058594 12.5 C 4.1164694 12.61107 4.0060629 11.982579 4.0019531 11.542969 C 4.022721 11.434389 4.0336885 11.300237 4.0703125 11.185547 C 4.0935896 11.063217 4.1036594 10.908053 4.0996094 10.876953 C 4.0650194 10.611653 3.9645108 10.543209 3.9492188 10.537109 C 3.9339287 10.531049 3.8787794 10.495303 3.6933594 10.689453 C 3.5634494 10.825493 3.444038 11.038979 3.2988281 11.292969 C 3.195528 11.546959 3.0224707 11.812335 2.9941406 12.109375 C 2.9339206 12.379175 2.599788 12.56063 2.3300781 12.5 C 2.060276 12.43978 1.956947 12.160335 2.0175781 11.890625 L 2.1074219 11.492188 L 2.1289062 11.443359 C 2.2104062 11.266859 2.2901875 11.040875 2.4296875 10.796875 C 2.5635875 10.562675 2.7122331 10.268687 2.9707031 9.9980469 C 3.245833 9.7099569 3.6106169 9.5336745 3.9667969 9.5390625 z M 2.0058594 13 L 9.0058594 13 L 9.0058594 14 L 2.0058594 14 L 2.0058594 13 z M 10.005859 13 L 12.005859 13 L 12.005859 14 L 10.005859 14 L 10.005859 13 z"/>
 </g>
</svg>
