<svg xmlns="http://www.w3.org/2000/svg" width="22" height="22" version="1.1">
 <defs>
  <style id="current-color-scheme" type="text/css">
   .ColorScheme-Text { color:#4cbe99; } .ColorScheme-Highlight { color:#4285f4; } .ColorScheme-NeutralText { color:#ff9800; } .ColorScheme-PositiveText { color:#4caf50; } .ColorScheme-NegativeText { color:#f44336; }
  </style>
 </defs>
 <g transform="matrix(1,0,0,1,3,3)">
  <path style="fill:currentColor" class="ColorScheme-Text" d="M 2.25 4 C 2 4 2 4.25 2 4.25 L 2 5.75 C 2 6 2.25 6 2.25 6 L 3.75 6 C 4 6 4 5.75 4 5.75 L 4 4.25 C 4 4 3.75 4 3.75 4 L 2.25 4 z M 5.25 4 C 5 4 5 4.25 5 4.25 L 5 5.75 C 5 6 5.25 6 5.25 6 L 6.75 6 C 7 6 7 5.75 7 5.75 L 7 4.25 C 7 4 6.75 4 6.75 4 L 5.25 4 z M 8.25 4 C 8 4 8 4.25 8 4.25 L 8 5.75 C 8 6 8.25 6 8.25 6 L 9.75 6 C 10 6 10 5.75 10 5.75 L 10 4.25 C 10 4 9.75 4 9.75 4 L 8.25 4 z M 11.25 4 C 11 4 11 4.25 11 4.25 L 11 5.75 C 11 6 11.25 6 11.25 6 L 12.75 6 C 13 6 13 5.75 13 5.75 L 13 4.25 C 13 4 12.75 4 12.75 4 L 11.25 4 z M 2.25 7 C 2 7 2 7.25 2 7.25 L 2 8.75 C 2 9 2.25 9 2.25 9 L 3.75 9 C 4 9 4 8.75 4 8.75 L 4 7.25 C 4 7 3.75 7 3.75 7 L 2.25 7 z M 5.25 7 C 5 7 5 7.25 5 7.25 L 5 8.75 C 5 9 5.25 9 5.25 9 L 6.75 9 C 7 9 7 8.75 7 8.75 L 7 7.25 C 7 7 6.75 7 6.75 7 L 5.25 7 z M 8.25 7 C 8 7 8 7.25 8 7.25 L 8 8.75 C 8 9 8.25 9 8.25 9 L 9.75 9 C 10 9 10 8.75 10 8.75 L 10 7.25 C 10 7 9.75 7 9.75 7 L 8.25 7 z M 11.25 7 C 11 7 11 7.25 11 7.25 L 11 8.75 C 11 9 11.25 9 11.25 9 L 12.75 9 C 13 9 13 8.75 13 8.75 L 13 7.25 C 13 7 12.75 7 12.75 7 L 11.25 7 z M 2.25 10 C 2 10 2 10.25 2 10.25 L 2 11.75 C 2 12 2.25 12 2.25 12 L 3.75 12 C 4 12 4 11.75 4 11.75 L 4 10.25 C 4 10 3.75 10 3.75 10 L 2.25 10 z M 5.25 10 C 5 10 5 10.25 5 10.25 L 5 11.75 C 5 12 5.25 12 5.25 12 L 6.75 12 C 7 12 7 11.75 7 11.75 L 7 10.25 C 7 10 6.75 10 6.75 10 L 5.25 10 z M 8.25 10 C 8 10 8 10.25 8 10.25 L 8 11.75 C 8 12 8.25 12 8.25 12 L 9.75 12 C 10 12 10 11.75 10 11.75 L 10 10.25 C 10 10 9.75 10 9.75 10 L 8.25 10 z M 11.25 10 C 11 10 11 10.25 11 10.25 L 11 11.75 C 11 12 11.25 12 11.25 12 L 12.75 12 C 13 12 13 11.75 13 11.75 L 13 10.25 C 13 10 12.75 10 12.75 10 L 11.25 10 z"/>
 </g>
</svg>
