<svg xmlns="http://www.w3.org/2000/svg" width="22" height="22" version="1.1">
 <defs>
  <style id="current-color-scheme" type="text/css">
   .ColorScheme-Text { color:#4cbe99; } .ColorScheme-Highlight { color:#4285f4; } .ColorScheme-NeutralText { color:#ff9800; } .ColorScheme-PositiveText { color:#4caf50; } .ColorScheme-NegativeText { color:#f44336; }
  </style>
 </defs>
 <g transform="translate(3,3)">
  <path style="fill:currentColor" class="ColorScheme-Text" d="M 0,1 V 15 H 16 V 1 Z M 2,3 H 7 V 13 H 2 Z M 9,5 H 10.414 L 12,6.5859 13.586,5 H 15 V 6.4141 L 13.414,8 15,9.5859 V 11 H 13.586 L 12,9.4141 10.414,11 H 9 V 9.5859 L 10.586,8 9,6.4141 Z"/>
 </g>
</svg>
