<svg xmlns="http://www.w3.org/2000/svg" width="16" height="16" version="1.1">
 <path style="fill:#4cbe99" d="M 4,2 C 4,2 2,2 2,4 V 11 C 2,12 1,12 1,12 H 0 V 14 H 16 V 12 H 15 C 15,12 14,12 14,11 V 4 C 14,4 14,2 12,2 Z M 7,5 H 9 V 7 H 11 V 9 H 9 V 11 H 7 V 9 H 5 V 7 H 7 Z"/>
</svg>
