<svg xmlns="http://www.w3.org/2000/svg" width="16" height="16" version="1.1">
 <path style="fill:#4cbe99" d="M 3 1 C 3 1 2 1 2 2 L 2 11 L 2 14 C 2 15 3 15 3 15 L 8 15 L 8 13 L 4 13 L 4 3.0097656 L 12 3.0097656 L 12 9 L 14 9 L 14 2 C 14 1 13 1 13 1 L 3 1 z M 7 4 L 7 7.0859375 A 1.5 1.5 0 0 0 6.5 7 A 1.5 1.5 0 0 0 5 8.5 A 1.5 1.5 0 0 0 6.5 10 A 1.5 1.5 0 0 0 8 8.5 L 8 5 L 9 5 L 9 4 L 8 4 L 7 4 z M 9 10 L 9 11 C 9 11.28 9.1090625 11.530936 9.2890625 11.710938 L 10.589844 13 L 9.2890625 14.289062 C 9.1090625 14.469062 9 14.72 9 15 L 9 16 L 10 16 C 10.28 16 10.530936 15.890937 10.710938 15.710938 L 12 14.410156 L 13.289062 15.710938 C 13.469062 15.890936 13.72 16 14 16 L 15 16 L 15 15 C 15 14.72 14.890937 14.469064 14.710938 14.289062 L 13.410156 13 L 14.710938 11.710938 C 14.890936 11.530938 15 11.28 15 11 L 15 10 L 14 10 C 13.72 10 13.469064 10.109064 13.289062 10.289062 L 12 11.589844 L 10.710938 10.289062 C 10.530936 10.109064 10.28 10 10 10 L 9 10 z"/>
</svg>
