<svg xmlns="http://www.w3.org/2000/svg" width="22" height="22" version="1.1">
 <defs>
  <style id="current-color-scheme" type="text/css">
   .ColorScheme-Text { color:#4cbe99; } .ColorScheme-Highlight { color:#4285f4; } .ColorScheme-NeutralText { color:#ff9800; } .ColorScheme-PositiveText { color:#4caf50; } .ColorScheme-NegativeText { color:#f44336; }
  </style>
 </defs>
 <circle style="fill:currentColor" class="ColorScheme-Highlight" cx="20" cy="18" r="2"/>
 <path style="fill:currentColor" class="ColorScheme-Text" d="M 10.818359 3.0097656 A 7.9999999 7.9999999 0 0 0 3 11 A 7.9999999 7.9999999 0 0 0 11 19 A 7.9999999 7.9999999 0 0 0 19 11 A 7.9999999 7.9999999 0 0 0 15.556641 4.4492188 L 15.556641 6.0996094 A 6 6 0 0 1 17 10 A 6 6 0 0 1 11 16 A 6 6 0 0 1 5 10 A 6 6 0 0 1 9.8945312 4.1152344 C 10.183867 3.7693337 10.511207 3.3783633 10.654297 3.203125 C 10.711287 3.133326 10.763306 3.0747787 10.818359 3.0097656 z M 12.677734 4 C 12.66305 4.0017919 12.651051 4.006446 12.640625 4.0117188 C 12.603665 4.0304107 12.426745 4.2529251 12.246094 4.5058594 C 12.065444 4.7587931 11.670642 5.2994467 11.369141 5.7089844 C 11.067641 6.1185216 10.494631 6.9036027 10.097656 7.4511719 C 9.3177673 8.5269096 9.1929257 8.7429805 9.0644531 9.2539062 C 8.9842178 9.5730113 8.9771568 10.089309 9.0488281 10.388672 C 9.2453255 11.209344 9.9029199 11.82438 10.75 11.982422 C 10.7885 11.989622 10.921727 11.99806 11.044922 12 C 11.558201 12.0085 11.995212 11.809125 12.365234 11.398438 C 12.560252 11.181988 12.614501 11.096841 12.734375 10.820312 C 12.811615 10.642141 12.895534 10.40602 12.921875 10.294922 C 12.989455 10.009965 13.021468 9.4214907 12.986328 8.0742188 L 12.986328 4.1484375 C 12.970226 4.055643 12.780522 3.9874569 12.677734 4 z"/>
</svg>
