<svg xmlns="http://www.w3.org/2000/svg" width="22" height="22" version="1.1">
 <defs>
  <style id="current-color-scheme" type="text/css">
   .ColorScheme-Text { color:#4cbe99; } .ColorScheme-Highlight { color:#4285f4; } .ColorScheme-NeutralText { color:#ff9800; } .ColorScheme-PositiveText { color:#4caf50; } .ColorScheme-NegativeText { color:#f44336; }
  </style>
 </defs>
 <path style="fill:currentColor" class="ColorScheme-NegativeText" d="M 13.320312 4 C 13.226023 3.99888 13.131637 4.0011094 13.035156 4.0058594 C 12.166297 4.0490747 11.43156 4.3995737 10.708984 4.9003906 C 10.401663 5.1133564 9.93871 5.6477089 9.734375 5.9160156 C 9.631711 6.0510736 9.6323894 6.0514726 9.4746094 6.0097656 C 9.3855394 5.9866166 9.056566 5.969839 8.71875 5.9707031 C 8.1892611 5.9718931 8.0804699 5.9830033 7.7792969 6.0664062 C 6.0780889 6.5369778 4.8982875 7.9191043 4.8046875 9.7011719 L 4.7832031 10.107422 L 4.6464844 10.148438 C 4.1623696 10.29875 3.5600286 10.590583 3.1347656 11.03125 C 2.6275626 11.556791 2.2847199 12.181108 2.0917969 12.927734 C 2.0101469 13.243575 2 13.346331 2 13.917969 C 2 14.489621 2.0101869 14.594269 2.0917969 14.910156 C 2.5114769 16.534316 3.7820259 17.72719 5.3417969 17.962891 C 5.4301198 17.976278 7.0440307 17.986082 9 17.992188 L 9 15.992188 C 8.3170441 15.990197 7.5324793 15.989797 7.0117188 15.986328 C 6.5298358 15.983128 6.1327184 15.978429 5.8554688 15.974609 C 5.7485003 15.973109 5.6780613 15.972103 5.6113281 15.970703 C 4.8932483 15.848573 4.2582302 15.301733 4.0273438 14.408203 C 3.9627825 14.15828 4 14.467369 4 13.917969 C 4 13.36849 3.9628075 13.677375 4.0273438 13.427734 C 4.1441121 12.975832 4.3007499 12.703207 4.5722656 12.421875 L 4.5722656 12.419922 C 4.7525564 12.233101 5.2476509 11.956681 5.2402344 11.958984 L 5.3710938 11.917969 C 6.1729896 11.670848 6.735333 11.04892 6.7792969 10.210938 L 6.8007812 9.8046875 C 6.8512248 8.8442845 7.4218815 8.2404947 8.3125 7.9941406 L 8.3125 7.9921875 C 8.5390247 7.9294565 8.2205792 7.9718331 8.7226562 7.9707031 C 8.8426662 7.9703961 8.9611969 7.9744156 9.0507812 7.9785156 C 9.2129465 8.0450436 9.5902351 8.1667279 10.300781 7.9121094 C 11.169392 7.6008498 11.274594 7.0990204 11.326172 7.0292969 C 11.280442 7.0893389 11.81667 6.4667849 11.847656 6.4453125 L 11.849609 6.4453125 C 12.307552 6.1279128 12.593134 6.0309729 13.132812 6.0039062 C 13.589597 5.9814193 13.879178 6.0424262 14.292969 6.2519531 C 14.891194 6.5549864 15.180869 6.8489013 15.484375 7.4921875 C 15.691082 7.9303048 15.763151 8.2869977 15.742188 8.7792969 L 15.724609 9.1894531 C 15.695559 9.8798408 16.024911 10.536326 16.595703 10.925781 L 16.857422 11.105469 C 16.847342 11.107469 17.13928 11.345611 17.234375 11.443359 C 17.924631 12.152895 18.168697 13.045991 17.902344 14.087891 C 17.848504 14.298484 17.424227 15.063408 17.244141 15.25 C 17.094861 15.404685 16.28844 15.876829 16.212891 15.898438 C 15.87113 15.996207 16.165581 15.962652 15.490234 15.982422 C 15.060055 15.995021 14.171887 15.997527 13 15.998047 L 13 17.998047 C 16.017176 17.996169 16.233337 17.971508 16.761719 17.820312 C 17.371453 17.645934 18.206119 17.133434 18.683594 16.638672 C 19.183335 16.120877 19.666079 15.263648 19.839844 14.583984 C 20.265827 12.91766 19.833844 11.247222 18.667969 10.048828 C 18.46197 9.837072 18.164869 9.5759006 18.007812 9.46875 L 17.722656 9.2753906 L 17.740234 8.8632812 C 17.773863 8.0736774 17.628182 7.3491605 17.292969 6.6386719 C 16.826779 5.6505727 16.150843 4.9498349 15.197266 4.4667969 C 14.59078 4.1596981 13.980383 4.0078072 13.320312 4 z M 10 10 L 10 14 L 10.25 16 L 11.75 16 L 12 14 L 12 10 L 10 10 z M 10 17 L 10 19 L 12 19 L 12 17 L 10 17 z"/>
</svg>
