<svg xmlns="http://www.w3.org/2000/svg" width="22" height="22" version="1.1">
 <defs>
  <style id="current-color-scheme" type="text/css">
   .ColorScheme-Text { color:#4cbe99; } .ColorScheme-Highlight { color:#4285f4; } .ColorScheme-NeutralText { color:#ff9800; } .ColorScheme-PositiveText { color:#4caf50; } .ColorScheme-NegativeText { color:#f44336; }
  </style>
 </defs>
 <path style="fill:currentColor" class="ColorScheme-Text" d="M 3.234375,3.9999999 A 1.2349999,1.3065444 0 0 0 2,5.3066409 V 15.693359 A 1.2349999,1.3065444 0 0 0 3.234375,17 h 16.53125 A 1.2349999,1.3065444 0 0 0 21,15.693359 V 5.3066409 a 1.2349999,1.3065444 0 0 0 -1.234375,-1.306641 z m 1.082032,3 a 0.33958423,0.34841185 0 0 1 0.002,0 0.33958423,0.34841185 0 0 1 0.0332,0 0.33958423,0.34841185 0 0 1 0.15625,0.04687 l 5.324218,3.1523441 a 0.33958423,0.34841185 0 0 1 0,0.601562 L 4.50786,13.953125 A 0.33958423,0.34841185 0 0 1 4.000047,13.652344 V 7.3476559 a 0.33958423,0.34841185 0 0 1 0.316407,-0.347656 z m 8.27539,1.0000002 h 3.816406 a 0.59430874,0.50193597 0 0 1 0.591797,0.5 0.59430874,0.50193597 0 0 1 -0.591797,0.5 H 12.591797 A 0.59430874,0.50193597 0 0 1 12,8.5000001 0.5828356,0.49224609 0 0 1 12.173828,8.1484381 0.5828356,0.49224609 0 0 1 12.591797,8.0000001 Z M 12.558597,10 h 5.884765 A 0.55759776,0.49999966 0 0 1 18.837891,10.851562 0.55975898,0.50193765 0 0 1 18.443359,11 H 12.558594 A 0.55975898,0.50193765 0 0 1 12,10.5 0.55975898,0.50193765 0 0 1 12.558594,10 Z m 0,2 h 5.884765 A 0.55759784,0.49999996 0 0 1 18.837891,12.851562 0.55975907,0.50193795 0 0 1 18.443359,13 H 12.558594 A 0.55975907,0.50193795 0 0 1 12,12.5 0.55975907,0.50193795 0 0 1 12.558594,12 Z"/>
</svg>
