<svg xmlns="http://www.w3.org/2000/svg" width="22" height="22" version="1.1">
 <defs>
  <style id="current-color-scheme" type="text/css">
   .ColorScheme-Text { color:#4cbe99; } .ColorScheme-Highlight { color:#4285f4; } .ColorScheme-NeutralText { color:#ff9800; } .ColorScheme-PositiveText { color:#4caf50; } .ColorScheme-NegativeText { color:#f44336; }
  </style>
 </defs>
 <path style="fill:currentColor" class="ColorScheme-Text" d="M 4,4 C 3,4 3,5 3,5 V 13.94 16.66 C 3.215,16.89 3.547,17.01 3.875,16.97 3.92,16.97 3.954,17 4,17 H 18 C 18.554,17 19,16.55 19,16 V 5 C 19,4.45 18.554,4 18,4 H 15.094 14.031 Z M 4,5 H 14.406 15.469 18 V 12 13.09 15 H 13.437 4 V 14.84 Z M 12,6 C 11.448,6 11,6.45 11,7 11,7.55 11.448,8 12,8 12.552,8 13,7.55 13,7 13,6.45 12.552,6 12,6 Z M 8,9 C 6.5,9 5,11 5,13.53 V 14 H 17 C 17,14 16,10 14.5,10 13,10 13,12 12,12 11,12 9.5,9 8,9 Z"/>
</svg>
