<svg xmlns="http://www.w3.org/2000/svg" width="22" height="22" version="1.1">
 <defs>
  <style id="current-color-scheme" type="text/css">
   .ColorScheme-Text { color:#4cbe99; } .ColorScheme-Highlight { color:#4285f4; } .ColorScheme-NeutralText { color:#ff9800; } .ColorScheme-PositiveText { color:#4caf50; } .ColorScheme-NegativeText { color:#f44336; }
  </style>
 </defs>
 <path style="fill:currentColor" class="ColorScheme-Text" d="m 10.999959,3.9999996 c -0.804408,0.013126 -1.3870505,0.1977971 -1.7049255,0.5388031 -0.33899,0.363655 -0.412776,0.875078 -0.318067,1.440831 0.180558,1.07858 1.0504775,2.400917 1.9471035,3.590558 -0.0062,0.0077 -0.0127,0.01647 -0.01897,0.02414 -0.451623,0.5532403 -1.5393855,1.4603373 -1.9791835,1.8898273 0.0709,-0.314331 0.122175,-0.655627 0.133922,-0.873498 0.0101,-0.18663 0.0041,-0.331899 -0.05468,-0.449917 -0.02941,-0.05901 -0.08165,-0.115425 -0.15401,-0.138267 -0.07236,-0.02284 -0.147257,-0.0079 -0.212044,0.02195 -0.129574,0.05973 -0.252988,0.17953 -0.40958,0.372005 -0.156592,0.192477 -0.340412,0.515186 -0.556895,0.869108 -0.216483,0.35392 -0.369504,0.837531 -0.468729,1.063279 -0.05109,0.116245 -0.08901,0.216772 -0.112719,0.305066 -0.02233,0.08317 -0.03279,0.156244 -0.02902,0.223861 0.123662,0.164147 0.324089,0.141177 0.486585,0.151435 0.07054,-7.28e-4 0.143981,-0.01295 0.225436,-0.06145 0.191156,-0.113831 0.425091,-0.29435 0.675193,-0.504784 -0.178376,0.581173 0.203519,0.91691 -0.080991,1.56717 -0.004,0.0091 -0.0094,0.01837 -0.0134,0.02743 -1.501245,-0.201163 -3.068233,-0.07376 -4.128163,0.285314 -0.55597,0.188346 -0.983689,0.607569 -1.150618,1.071022 -0.166929,0.463454 -0.06453,0.652226 0.354894,1.382415 0.419428,0.730188 0.880914,1.065736 1.373824,1.169784 0.492909,0.104048 0.984985,-0.0323 1.440782,-0.395049 0.868955,-0.691562 1.653605,-1.895858 2.263292,-3.246828 0.01,0.0015 0.02013,0.0019 0.03013,0.0033 0.717994,0.104267 1.406882,0.431003 2.0088385,0.587187 -0.315201,0.09742 -0.8945005,0.197211 -1.0942345,0.296287 -0.171009,0.08483 -0.297197,0.162443 -0.37275,0.271047 -0.03777,0.0543 -0.06273,0.126179 -0.04688,0.198622 0.01586,0.07244 0.06715,0.128193 0.126111,0.167896 0.117908,0.07941 0.286217,0.124395 0.53569,0.160214 0.2494755,0.03582 0.8776985,0.05695 1.3006975,0.06255 0.0012,1.6e-5 0.0021,-1.7e-5 0.0034,0 0.0012,-1.7e-5 0.0021,1.6e-5 0.0034,0 0.423,-0.0056 1.051228,-0.02673 1.300701,-0.06255 0.249474,-0.03582 0.417783,-0.08081 0.535691,-0.160214 0.05896,-0.0397 0.110249,-0.09545 0.126111,-0.167896 0.01587,-0.07244 -0.0091,-0.144319 -0.04688,-0.198622 -0.07555,-0.108604 -0.201741,-0.186217 -0.37275,-0.271047 -0.199734,-0.09908 -0.779037,-0.198864 -1.094238,-0.296287 0.601956,-0.156184 1.290844,-0.48292 2.008839,-0.587187 0.01,-0.0014 0.02013,-0.0018 0.03013,-0.0033 0.609687,1.35097 1.394337,2.555266 2.263291,3.246828 0.455798,0.362749 0.947874,0.499097 1.440784,0.395049 0.492909,-0.104048 0.954395,-0.439596 1.373823,-1.169784 0.419426,-0.730188 0.521823,-0.918962 0.354894,-1.382415 -0.166929,-0.463452 -0.594648,-0.882677 -1.150618,-1.071022 -1.05993,-0.359075 -2.626917,-0.486477 -4.128163,-0.285314 -0.004,-0.0091 -0.0095,-0.01837 -0.01339,-0.02743 -0.284511,-0.65026 0.09738,-0.985997 -0.081,-1.56717 0.250101,0.210434 0.484036,0.390953 0.675192,0.504784 0.08146,0.04851 0.154899,0.06072 0.225436,0.06145 0.162496,-0.01026 0.362923,0.01271 0.486586,-0.151435 0.0038,-0.06762 -0.0067,-0.140687 -0.02902,-0.223861 -0.0237,-0.08829 -0.06162,-0.188821 -0.112719,-0.305066 -0.09923,-0.225748 -0.252245,-0.709677 -0.468729,-1.063597 -0.216481,-0.353922 -0.400302,-0.676631 -0.556894,-0.869108 -0.156593,-0.192475 -0.280006,-0.312271 -0.409579,-0.372005 -0.06479,-0.02986 -0.139683,-0.04479 -0.212044,-0.02195 -0.07236,0.02284 -0.124608,0.07926 -0.154012,0.138267 -0.0588,0.118018 -0.06475,0.263287 -0.05468,0.449917 0.01175,0.217871 0.06302,0.559167 0.133923,0.873498 -0.439798,-0.42949 -1.527553,-1.336269 -1.979176,-1.8895093 -0.0062,-0.0077 -0.01271,-0.01645 -0.01897,-0.02414 0.896625,-1.189641 1.766536,-2.511978 1.947095,-3.590558 0.09471,-0.565753 0.02093,-1.077176 -0.318066,-1.440831 -0.317925,-0.341006 -0.900561,-0.525673 -1.704969,-0.5388031 z"/>
</svg>
