<svg xmlns="http://www.w3.org/2000/svg" width="16" height="16" version="1.1">
 <defs>
  <style id="current-color-scheme" type="text/css">
   .ColorScheme-Text { color:#4cbe99; } .ColorScheme-Highlight { color:#4285f4; } .ColorScheme-NeutralText { color:#ff9800; } .ColorScheme-PositiveText { color:#4caf50; } .ColorScheme-NegativeText { color:#f44336; }
  </style>
 </defs>
 <path style="opacity:.35;fill:currentColor" class="ColorScheme-Text" d="M 3.0410156,1.9999376 8.005859,5.5448595 12.96875,1.9999376 Z M 3,6.880797 v 7.119141 h 9.501953 A 2.5,2.5 0 0 1 12,12.499938 2.5,2.5 0 0 1 13,10.501891 V 6.8905626 l -3.830078,2.736328 c -0.692341,0.4946744 -1.633831,0.4946744 -2.326172,0 z"/>
 <path style="fill:currentColor" class="ColorScheme-Text" d="M 1.0371094,1.9999376 A 0.99917917,0.9987072 0 0 0 0.0019531,3.0409532 C 0.0019147,3.0436766 0,3.068297 0,3.068297 v 9.9375 c 0,0.54653 0.4399575,1.000321 0.9921875,0.994141 H 2 V 4.9393907 l 5.425781,3.8730469 a 0.99917917,0.9987072 0 0 0 1.16211,0 L 14,4.9491564 V 10.054626 A 2.5,2.5 0 0 1 14.5,9.9999376 2.5,2.5 0 0 1 16,10.503844 V 2.990172 c 0,-0.00348 -0.0019,-0.0063 -0.002,-0.00977 A 1.0001247,0.99965229 0 0 0 15.92573,2.6327457 c -0.0071,-0.018016 -0.01332,-0.03526 -0.02148,-0.052734 A 1.0001247,0.99965229 0 0 0 15.724609,2.3202501 c -0.01676,-0.01774 -0.03278,-0.034302 -0.05078,-0.050781 A 1.0001247,0.99965229 0 0 0 15.431641,2.1073595 c -0.03286,-0.015969 -0.06494,-0.028643 -0.09961,-0.041016 a 1.0001247,0.99965229 0 0 0 -0.279297,-0.05664 C 15.03439,2.0086897 15.01856,1.9999376 15,1.9999376 l -0.0059,0.00977 A 1.0001247,0.99965229 0 0 0 14.417969,2.193297 L 8.005859,6.7733751 1.59375,2.193297 A 0.99917917,0.9987072 0 0 0 1.0371094,1.9999376 Z"/>
 <circle style="fill:currentColor" class="ColorScheme-Highlight" cx="14.5" cy="12.5" r="1.5"/>
</svg>
