<svg xmlns="http://www.w3.org/2000/svg" width="16" height="16" version="1.1">
 <defs>
  <style id="current-color-scheme" type="text/css">
   .ColorScheme-Text { color:#4cbe99; } .ColorScheme-Highlight { color:#4285f4; } .ColorScheme-NeutralText { color:#ff9800; } .ColorScheme-PositiveText { color:#4caf50; } .ColorScheme-NegativeText { color:#f44336; }
  </style>
 </defs>
 <path style="fill:currentColor" class="ColorScheme-Text" d="m 12.382358,0.99958504 c -0.285923,0 -0.145833,0.04645 -0.298951,0.10351596 -0.653686,0.243617 -1.160753,0.500199 -1.451172,1.664094 -0.467166,1.8722268 -1.2697591,2.7070317 -2.6025391,2.7070317 -0.407157,0 -0.410953,0.08131 -0.02149,0.4453111 0.756163,0.7067018 1.216254,1.7658248 1.34082,3.0878898 0.04897,0.5195594 0.122066,0.749619 0.305664,0.9648416 0.132467,0.1552868 0.295766,0.2812498 0.3642581,0.2812498 0.06849,0 0.201509,-0.230053 0.295899,-0.5117174 0.126855,-0.378532 0.192132,-1.046416 0.25,-2.560546 0.06709,-1.7555209 0.109469,-2.1289799 0.295898,-2.6103493 0.477208,-1.2321663 1.044367,-1.8906223 2.130982,-1.4037893 0.521727,0.23375 0.972446,0.9126248 1.63379,2.0698047 0.490486,0.8582289 1.041652,1.5058569 1.282226,1.5058569 0.121528,0 0.124257,-0.166917 0.0039,-0.240234 C 15.418422,5.1548247 15.396004,3.457046 15.095242,2.663648 14.56257,1.633701 13.527579,0.99958504 12.382358,0.99958504 Z M 5.8246173,5.2877037 c -0.09453,8.5e-4 -0.202611,0.0091 -0.336914,0.02149 -0.635293,0.05852 -0.951172,0.1418 -0.951172,0.2509769 0,0.03567 0.393838,0.458752 0.874023,0.940426 0.9551406,0.958098 1.4120686,1.72059 1.6201176,2.704102 0.09367,0.3201244 0.121744,0.6477478 0.142578,0.9765604 -0.713386,0.324048 -1.171841,1.034825 -1.172852,1.818359 0,1.104569 0.895431,2 2.000001,2 1.10457,0 2.0000001,-0.895431 2.0000001,-2 C 9.9996989,11.230633 9.5581369,10.53016 8.8646569,10.19786 8.7639919,9.9216752 8.7894669,9.6542068 8.7894669,9.3814556 c 0,-1.634304 -0.85421,-3.139681 -2.187501,-3.855466 C 6.2643279,5.3447307 6.1082019,5.2851387 5.8246173,5.2877087 Z m -2.091797,0.6513651 -0.539062,0.3652348 c -0.791485,0.537693 -1.56266,1.411237 -1.9775389,2.239257 -0.328679,0.655977 -0.369397,0.824522 -0.408203,1.6826154 -0.02699,0.596736 -0.101953,1.067707 -0.199219,1.256836 -0.211182,0.410627 -0.106372,0.796026 0.240234,0.881835 0.145922,0.03612 0.489867,0.292399 0.7646479,0.56836 0.920057,0.923995 2.670229,1.302958 4.233399,0.916992 0.4047146,-0.09993 0.4538116,-0.188166 0.2148426,-0.383789 -0.08583,-0.07026 -0.2686876,-0.347526 -0.4072256,-0.617188 -0.47379,-0.922245 -0.297537,-2.069447 0.4335926,-2.80957 0.331739,-0.3358154 0.35154,-0.3892412 0.293946,-0.8037094 -0.03393,-0.244325 -0.174625,-0.66527 -0.313477,-0.935547 C 5.7857823,7.7495686 4.5947493,6.4628026 4.0736403,6.1451236 Z m -0.982422,4.0605444 c 0.414214,0 0.75,0.3357858 0.75,0.7499998 0,0.414214 -0.335786,0.75 -0.75,0.75 -0.414213,0 -0.75,-0.335786 -0.75,-0.75 0,-0.414214 0.335787,-0.7499998 0.75,-0.7499998 z m 5.2500006,0.9999998 c 0.552285,0 1,0.447715 1,1 0,0.552284 -0.447715,1 -1,1 -0.552286,0 -1.000001,-0.447716 -1.000001,-1 0,-0.552285 0.447715,-1 1.000001,-1 z"/>
</svg>
