<svg xmlns="http://www.w3.org/2000/svg" width="16" height="16" version="1.1">
 <defs>
  <style id="current-color-scheme" type="text/css">
   .ColorScheme-Text { color:#4cbe99; } .ColorScheme-Highlight { color:#4285f4; } .ColorScheme-NeutralText { color:#ff9800; } .ColorScheme-PositiveText { color:#4caf50; } .ColorScheme-NegativeText { color:#f44336; }
  </style>
 </defs>
 <path style="fill:currentColor" class="ColorScheme-Text" d="M 8.031,2 C 4.9969,2 2.2654,3.2718 0,5.0163 L 8.031,14 16,4.9837 C 13.743,3.2585 11.042,2 8.031,2 Z"/>
 <path style="fill:currentColor" class="ColorScheme-Text" d="M 0,5 C 2.0806,3.0732 4.9494,2 8,2 11.051,2 13.919,3.0731 16,5 L 8,14 Z"/>
</svg>
