<svg xmlns="http://www.w3.org/2000/svg" width="16" height="16" version="1.1">
 <defs>
  <style id="current-color-scheme" type="text/css">
   .ColorScheme-Text { color:#4cbe99; } .ColorScheme-Highlight { color:#4285f4; } .ColorScheme-NeutralText { color:#ff9800; } .ColorScheme-PositiveText { color:#4caf50; } .ColorScheme-NegativeText { color:#f44336; }
  </style>
 </defs>
 <path style="fill:currentColor" class="ColorScheme-Text" d="M 6.5644531 0.001953125 C 6.5250149 -5.2604492e-05 6.4844203 0.000493175 6.4433594 0.00390625 C 6.3338644 0.01300625 6.2214022 0.042169 6.1132812 0.09375 C 4.952573 0.585289 5.0236389 1.3567908 5.0917969 2.4140625 C 5.1563469 2.6627695 5.103635 3.0214844 5.140625 3.0214844 C 5.140625 3.0214844 5.9742674 2.9468024 6.2128906 2.9433594 C 6.4561506 2.8561604 6.458808 2.8515115 6.421875 2.671875 C 6.404225 2.58602 6.3891819 2.368752 6.3886719 2.1875 C 6.3875719 1.7757345 6.4806715 1.4774068 6.7421875 1.0585938 C 6.9966795 0.65103106 7.0644531 0.50724555 7.0644531 0.37890625 C 7.0644531 0.15806456 6.8405204 0.015993231 6.5644531 0.001953125 z M 10.478516 0.1328125 C 10.423306 0.1353725 10.386342 0.1505625 10.375 0.1796875 C 10.36383 0.2083715 10.394993 0.44436073 10.445312 0.70507812 C 10.630085 1.662507 10.517369 2.2784416 10.019531 3.0097656 C 9.9173733 3.1598376 9.8747984 3.2501139 9.8964844 3.2714844 C 9.9501544 3.3243714 10.911168 3.8101561 10.970703 3.8144531 C 11.000743 3.8166031 11.076366 3.7613284 11.138672 3.6933594 C 11.406134 3.4015858 11.701379 2.9321147 11.847656 2.5664062 C 12.22891 1.6132297 12.016564 0.8421724 11.248047 0.390625 C 10.971005 0.2278474 10.64414 0.1251484 10.478516 0.1328125 z M 1.8007812 2.0605469 C 0.88208629 2.0703969 0.22762013 2.4284735 0.048828125 3.0390625 C -0.014141875 3.2541161 -0.016238125 3.7358015 0.044921875 3.96875 C 0.18509687 4.502682 0.57110792 4.8762169 1.1230469 5.0117188 C 1.3863169 5.0763488 2.0286389 5.0774019 2.3886719 5.0136719 C 2.7933699 4.9420989 3.4345091 4.7232504 3.8300781 4.5234375 C 4.0123311 4.4313765 4.179422 4.344846 4.203125 4.328125 C 4.240475 4.301775 4.4449785 3.8024546 4.4453125 3.7363281 C 4.4453795 3.7231081 4.371583 3.7489129 4.28125 3.7949219 C 4.074991 3.8999879 3.1627526 4.1668854 2.7597656 4.2402344 C 2.3338596 4.3177554 1.795974 4.3165932 1.59375 4.2382812 C 1.388674 4.1588522 1.2944439 4.0257233 1.2949219 3.8164062 C 1.2954719 3.5851219 1.3849956 3.3914632 1.5722656 3.2207031 C 1.8151946 2.9991945 1.9651165 2.9547995 2.5546875 2.9375 C 3.0872385 2.921875 3.4727458 2.9638385 4.0429688 3.0996094 C 4.3749307 3.1786494 4.54893 3.2769193 4.578125 3.4023438 L 4.5976562 3.4863281 L 4.6523438 3.4082031 C 4.7026937 3.3353361 4.999735 3.3168848 4.921875 3.1210938 C 4.876085 3.0059598 4.507662 2.8765934 4.46875 2.8339844 C 4.3826 2.7396504 3.7402863 2.4200611 3.4414062 2.3222656 C 3.0909732 2.2076017 2.6431235 2.1181229 2.2109375 2.078125 C 2.0696095 2.065045 1.9320233 2.0591369 1.8007812 2.0605469 z M 2.6894531 3.3730469 C 2.6106954 3.3726263 2.5232292 3.3740656 2.421875 3.3769531 C 1.766286 3.3956331 1.5350687 3.4831554 1.6367188 3.6757812 C 1.7544228 3.8988308 2.2534893 3.9216851 3.1445312 3.7421875 C 3.6950022 3.6312959 3.8360945 3.586762 3.7890625 3.5390625 C 3.7716325 3.5213875 3.5690347 3.4750254 3.3398438 3.4355469 C 3.0873082 3.3920476 2.9257263 3.3743087 2.6894531 3.3730469 z M 13.333984 3.5058594 C 13.012598 3.5185244 12.684724 3.5570375 12.419922 3.6191406 C 11.9992 3.7178096 11.595958 3.8620524 11.402344 3.984375 L 11.289062 4.0566406 L 11.470703 4.2246094 C 11.570543 4.3168324 11.676178 4.4010644 11.707031 4.4121094 C 11.738491 4.4233744 11.888815 4.3720113 12.048828 4.2929688 C 12.489607 4.0752273 12.897331 3.9788562 13.478516 3.9570312 C 13.913426 3.9406962 13.993454 3.9467267 14.201172 4.0117188 C 14.557766 4.1232948 14.74856 4.3667815 14.697266 4.6484375 C 14.646066 4.9295855 14.438472 5.096266 14.064453 5.15625 C 13.838063 5.19256 13.201905 5.1393603 12.621094 5.0351562 C 12.474131 5.0087862 12.34234 4.9949112 12.328125 5.0039062 C 12.313905 5.0129063 12.337126 5.0832963 12.378906 5.1601562 C 12.728716 5.8033003 14.130614 6.1828414 15.158203 5.9121094 C 15.940981 5.7058754 16.184351 5.2484387 15.861328 4.5859375 C 15.594888 4.0394835 15.047781 3.6973376 14.208984 3.5488281 C 13.970271 3.5065631 13.65537 3.4931994 13.333984 3.5058594 z M 13.583984 4.4003906 C 13.091478 4.3842806 12.498104 4.4704785 12.572266 4.546875 C 12.581166 4.556075 12.753025 4.5860784 12.955078 4.6152344 C 13.15713 4.6443894 13.360269 4.6741726 13.40625 4.6816406 C 13.45223 4.6891106 13.675691 4.6985919 13.902344 4.7011719 C 14.272843 4.7054219 14.314484 4.6988714 14.304688 4.6464844 C 14.298687 4.6144294 14.218378 4.548465 14.126953 4.5 C 13.983855 4.424139 13.907856 4.4109811 13.583984 4.4003906 z M 11.966797 4.8730469 C 11.903757 4.8730469 11.880186 4.8935906 11.865234 4.9628906 C 11.816064 5.1907914 11.731028 5.3594229 11.603516 5.4824219 C 11.28831 5.7864689 10.81162 5.7687703 10.148438 5.4257812 L 9.8242188 5.2578125 L 9.609375 5.4882812 C 9.157159 5.9727293 8.5393051 6.1348072 8.0644531 5.8945312 C 7.9046031 5.8136513 7.7773818 5.6125395 7.7304688 5.3671875 C 7.7120688 5.2709275 7.6972656 5.1882296 7.6972656 5.1816406 C 7.6972656 5.1397406 7.601585 5.183565 7.515625 5.265625 C 7.229598 5.538871 6.7267894 5.7405894 6.3339844 5.7402344 C 5.9470962 5.7398844 5.7531884 5.6159281 5.6152344 5.2832031 C 5.5815844 5.2020531 5.5420869 5.1367867 5.5292969 5.1367188 C 5.5165069 5.1366527 5.4388928 5.1824383 5.3554688 5.2382812 C 4.9438807 5.5137902 4.3776294 5.5445995 4.1621094 5.3046875 C 4.0356234 5.1638865 3.9756934 5.2293946 3.9746094 5.5097656 C 3.9735094 5.7949546 3.9153824 6.1062187 3.7089844 6.9492188 C 3.2926114 8.7020093 2.6523635 10.432293 2.5 12.111328 C 2.5042 12.986591 2.645989 13.373272 3.140625 13.859375 C 3.389962 14.104411 3.4763137 14.165585 3.8085938 14.328125 C 4.2418537 14.540062 4.5976691 14.650465 5.2207031 14.763672 C 6.4803473 14.992552 9.1027234 15.079592 9.8496094 14.917969 C 10.262663 14.828589 10.550938 14.732295 10.865234 14.578125 C 11.676296 14.180278 12.128802 13.658828 12.365234 12.849609 C 12.453134 12.548765 12.516362 11.978103 12.494141 11.699219 C 12.486941 11.608589 12.464953 11.326019 12.445312 11.072266 C 12.425672 10.818514 12.359439 10.099928 12.296875 9.4746094 C 12.119465 7.7015451 12.044841 7.6652359 11.982422 6.1074219 C 11.966442 5.7086669 11.944031 5.3254944 11.931641 5.2558594 C 11.913721 5.1552324 11.922566 5.1102662 11.978516 5.0351562 C 12.070356 4.9119497 12.067707 4.8730469 11.966797 4.8730469 z M 9.1601562 6.703125 C 9.5185802 6.701125 9.7796001 6.8988646 9.9394531 7.2910156 C 9.9933031 7.4231326 10.010469 7.5357876 10.011719 7.8066406 C 10.013219 8.1334376 10.005742 8.1660599 9.9023438 8.3730469 C 9.7758498 8.6262619 9.5337998 8.8620798 9.2773438 8.9804688 C 9.0895877 9.0671387 8.9571408 9.0755087 8.8085938 9.0117188 C 8.6604368 8.9480987 8.501485 8.7523785 8.4375 8.5546875 C 8.3526 8.2923685 8.336022 7.7333193 8.40625 7.4726562 C 8.43766 7.3560783 8.4784838 7.2014083 8.4960938 7.1289062 C 8.5595437 6.8677162 8.8150492 6.705075 9.1601562 6.703125 z M 6.6992188 6.7675781 C 6.7352376 6.7673612 6.771489 6.770484 6.8085938 6.7773438 C 6.9941727 6.8116537 7.3203297 7.149526 7.4179688 7.40625 C 7.5814138 7.836 7.4550462 8.3659756 7.0976562 8.7441406 C 6.8607622 8.9948036 6.673357 9.0558269 6.46875 8.9511719 C 6.303695 8.8667519 6.1953093 8.745449 6.0976562 8.53125 C 5.9521881 8.212169 5.9679579 7.7692046 6.1425781 7.2128906 C 6.2281881 6.940147 6.447087 6.7690965 6.6992188 6.7675781 z M 9.0136719 7.1152344 C 8.9311419 7.1108344 8.856365 7.12461 8.8125 7.15625 C 8.700365 7.23705 8.6083201 7.842301 8.6894531 7.96875 C 8.7158431 8.00987 8.7357131 8.0040406 8.8144531 7.9316406 C 8.9488471 7.8080576 9.0475321 7.7660219 9.2050781 7.7636719 C 9.3878531 7.7609719 9.5334131 7.8398389 9.6113281 7.9824219 C 9.6785781 8.1054849 9.7285156 8.1097266 9.7285156 7.9941406 C 9.7285156 7.7107866 9.4894677 7.2941895 9.2617188 7.1796875 C 9.1862088 7.1417275 9.0961979 7.1196344 9.0136719 7.1152344 z M 6.515625 7.1914062 C 6.403478 7.1914062 6.35742 7.299082 6.328125 7.640625 C 6.299365 7.975933 6.3121114 7.9931464 6.5058594 7.8964844 C 6.5930294 7.8529944 6.7102111 7.8164062 6.7675781 7.8164062 C 6.8249481 7.8164062 6.9303471 7.8468325 7.0019531 7.8828125 C 7.0735531 7.9187925 7.1384244 7.9415338 7.1464844 7.9335938 C 7.1825244 7.8980738 7.1103709 7.6809664 7.0136719 7.5371094 C 6.8943409 7.3595664 6.651742 7.1914063 6.515625 7.1914062 z M 8.4355469 11.5 L 8.6777344 11.515625 C 9.2005724 11.546995 9.4009345 11.806597 9.2421875 12.25 C 9.0908595 12.672683 8.6246407 13.045103 8.3085938 12.996094 C 8.0925947 12.962594 7.9490138 12.600314 7.9960938 12.212891 C 8.0250537 11.974516 8.0676275 11.890371 8.2734375 11.671875 L 8.4355469 11.5 z M 5.609375 11.792969 C 5.645785 11.786969 5.675202 11.79447 5.71875 11.8125 C 5.7719 11.83452 5.8502563 11.90672 5.8945312 11.972656 C 6.0707164 12.235025 6.0193587 12.620451 5.7734375 12.876953 C 5.6463465 13.009515 5.6266805 13.01832 5.4453125 13.03125 C 5.2545175 13.04485 5.249485 13.044556 5.125 12.921875 C 5.00633 12.804928 4.999711 12.786685 5 12.615234 C 5.000221 12.48682 5.022995 12.384275 5.078125 12.267578 C 5.189616 12.031564 5.261837 11.952508 5.453125 11.857422 C 5.529075 11.819672 5.57296 11.798979 5.609375 11.792969 z M 8.3496094 11.984375 L 8.3378906 12.107422 C 8.3313906 12.175222 8.3428144 12.291566 8.3652344 12.365234 C 8.4326044 12.586955 8.6250827 12.600348 8.8398438 12.398438 C 9.0587177 12.192666 8.9140601 11.985425 8.5488281 11.984375 L 8.3496094 11.984375 z M 5.4335938 12.175781 C 5.4117038 12.182681 5.3659342 12.239538 5.3320312 12.300781 C 5.2800413 12.394701 5.2765138 12.424786 5.3085938 12.494141 C 5.3295037 12.539371 5.3928737 12.595006 5.4492188 12.619141 C 5.5766908 12.673741 5.6066619 12.675836 5.6542969 12.628906 C 5.7320469 12.552286 5.7003944 12.386206 5.5839844 12.271484 C 5.5235144 12.211884 5.4554837 12.168858 5.4335938 12.175781 z M 14.5 13 A 1.5 1.5 0 0 0 13 14.5 A 1.5 1.5 0 0 0 14.5 16 A 1.5 1.5 0 0 0 16 14.5 A 1.5 1.5 0 0 0 14.5 13 z"/>
</svg>
