<svg xmlns="http://www.w3.org/2000/svg" width="16" height="16" version="1.1">
 <defs>
  <style id="current-color-scheme" type="text/css">
   .ColorScheme-Text { color:#4cbe99; } .ColorScheme-Highlight { color:#4285f4; } .ColorScheme-NeutralText { color:#ff9800; } .ColorScheme-PositiveText { color:#4caf50; } .ColorScheme-NegativeText { color:#f44336; }
  </style>
 </defs>
 <path style="fill:currentColor" class="ColorScheme-Text" d="m9.0775 1c-0.0777 0-0.1002 0.1507-0.0523 0.3498 0 0 0.1376 0.6353 1.0608 1.1006 0.643 0.3024 0.642 0.4772-4e-3 0.6586-0.2811 0.079-0.6229 0.2289-0.7593 0.333-0.225 0.1717-0.1429 0.2425 0.8833 0.7634 0.622 0.3158 1.247 0.6664 1.388 0.7791 0.244 0.1957 0.233 0.2231-0.244 0.6027-0.532 0.4237-1.162 1.4143-1.162 1.8278 0 0.2235 0.104 0.2417 0.981 0.1712 0.539-0.0434 1.132-0.098 1.318-0.1213l0.339-0.0425-0.049 1.1246c-0.026 0.6184-0.104 1.2783-0.173 1.466-0.068 0.188-0.097 0.371-0.063 0.406 0.142 0.148 0.72-0.179 1.117-0.6303 0.405-0.4621 0.431-0.4716 0.517-0.1881 0.291 0.5084 0.419 0.9534 0.87 1.3984 0.1 0.01 0.177-0.113 0.242-0.365 0.199-0.7782 0.092-1.5311-0.326-2.3087-0.226-0.419-0.447-1.0793-0.492-1.4675-0.044-0.3882-0.118-0.8397-0.163-1.0035-0.068-0.2489 0.064-0.3942 0.808-0.8844 0.847-0.5582 1.066-0.8758 0.746-1.0824-0.08-0.0513-0.499 0.1038-0.932 0.3446-0.433 0.2409-0.873 0.4378-0.977 0.4378s-0.43-0.3015-0.725-0.6699c-0.512-0.6403-0.536-0.7135-0.536-1.6585 0-0.898-0.026-0.9925-0.285-1.0311-0.209-0.0312-0.33 0.072-0.456 0.3882-0.094 0.2368-0.218 0.4306-0.276 0.4306s-0.635-0.2541-1.282-0.5646c-0.6474-0.3106-1.2385-0.5646-1.3135-0.5646zm-0.8255 1.0371-0.121 0.0097c-1.9774 0.2262-3.6267 1.5358-5.5137 4.3789l-1.62892 2.4512c-1.37003 2.0611-1.30979 4.1751 0.14262 5.0641 0.9386 0.575 1.8454 0.804 3.2812 0.826 0.7217 0.012 1.7779 0.067 2.3477 0.123 1.5896 0.157 1.7892 0.152 2.9082-0.056 1.2519-0.234 2.2179-0.719 2.9939-1.506 0.422-0.428 0.955-1.371 1.297-2.164l-0.123-0.242s-0.217 0.208-0.34 0.277c-0.165 0.093-0.33 0.176-0.57 0.227-0.24 0.05-0.71 0.1-1.108-0.315-0.356-0.372-0.286-0.578-0.291-0.705l0.02-0.287c0.025-0.159 0.117-0.4472 0.117-0.4472-0.053 0.1452 0.021-0.1103 0.049-0.3476 0.027-0.2289 0.062-0.791 0.062-0.791s-0.315 0.0318-0.527 0.0488c-0.448 0.0361-0.672 0.0832-1.07 0.0137-0.1993-0.0348-0.5442-0.1535-0.7677-0.459-0.2236-0.3056-0.2227-0.5893-0.2227-0.7227 0-0.7145 0.2656-1.0182 0.5371-1.4453 0.1418-0.2229 0.5233-0.6074 0.5233-0.6074s-0.3176-0.1741-0.494-0.2637c-0.5199-0.2638-0.7736-0.355-1.1133-0.6484-0.0849-0.0734-0.1867-0.1677-0.2851-0.3477-0.0985-0.18-0.1658-0.482-0.1133-0.7402 0.1049-0.5164 0.3687-0.634 0.4746-0.7149l0.0566-0.0253c-0.1069-0.113-0.3126-0.219-0.3867-0.3262-0.0627-0.0908-0.091-0.1704-0.1348-0.2578zm-0.3574 3.4707 0.2305 0.0019s0.1812 0.0543 0.2461 0.1192c0.2596 0.2596 0.0912 0.8501-0.1973 1.1386s-0.7345 0.3124-0.9941 0.0528c-0.2597-0.2597-0.2358-0.7057 0.0527-0.9942 0.1623-0.1622 0.4211-0.2868 0.6621-0.3183zm-4.5 2 0.2305 2e-3s0.1812 0.0542 0.2461 0.1191c0.2596 0.2597 0.0912 0.8502-0.1973 1.1387s-0.7345 0.3124-0.9941 0.0527c-0.2597-0.2596-0.2358-0.7056 0.0527-0.9941 0.1623-0.1623 0.4211-0.2869 0.6621-0.3184zm3 0.5 0.2305 2e-3s0.1812 0.0542 0.2461 0.1191c0.2596 0.2597 0.0912 0.8502-0.1973 1.1387s-0.7345 0.3124-0.9941 0.0527c-0.2597-0.2596-0.2358-0.7056 0.0527-0.9941 0.1623-0.1623 0.4211-0.2869 0.6621-0.3184zm3.5 1.5c0.0804-0.0105 0.2304 0.0019 0.2304 0.0019l0.246 0.1191c0.26 0.2597 0.091 0.8502-0.197 1.1382-0.2886 0.289-0.7346 0.313-0.9942 0.053-0.2597-0.26-0.2358-0.706 0.0527-0.9939 0.1623-0.1623 0.4211-0.2869 0.6621-0.3184zm-7.5 1.0002 0.2305 2e-3s0.1812 0.054 0.2461 0.119c0.2596 0.259 0.0912 0.85-0.1973 1.138-0.2885 0.289-0.7345 0.313-0.9941 0.053-0.2597-0.259-0.2358-0.705 0.0527-0.994 0.1623-0.162 0.4211-0.287 0.6621-0.318zm3.5 1 0.2305 2e-3s0.1812 0.054 0.2461 0.119c0.2596 0.259 0.0912 0.85-0.1973 1.138-0.2885 0.289-0.7345 0.313-0.9941 0.053-0.2597-0.259-0.2358-0.705 0.0527-0.994 0.1623-0.162 0.4211-0.287 0.6621-0.318zm3 1 0.2305 2e-3s0.1812 0.054 0.2461 0.119c0.2596 0.259 0.0912 0.85-0.1973 1.138-0.2885 0.289-0.7345 0.313-0.9941 0.053-0.2597-0.259-0.2358-0.705 0.0527-0.994 0.1623-0.162 0.4211-0.287 0.6621-0.318z"/>
</svg>
