<svg xmlns="http://www.w3.org/2000/svg" width="16" height="16" version="1.1">
 <defs>
  <style id="current-color-scheme" type="text/css">
   .ColorScheme-Text { color:#4cbe99; } .ColorScheme-Highlight { color:#4285f4; } .ColorScheme-NeutralText { color:#ff9800; } .ColorScheme-PositiveText { color:#4caf50; } .ColorScheme-NegativeText { color:#f44336; }
  </style>
 </defs>
 <circle style="fill:currentColor" class="ColorScheme-Highlight" cx="14.5" cy="1.5" r="1.5"/>
 <path style="fill:currentColor" class="ColorScheme-Text" d="m6.601 0.905c-1.0549 0.02816-1.6282 0.9866-2.0727 1.8589-0.1622 0.0819-0.327 0.1539-0.4874 0.2429-0.871 0.5855-1.5851 1.3976-2.1361 2.2848-0.4846 0.8554-0.7784 1.8057-0.8875 2.7808-0.06495 0.9885 0.0484 1.9966 0.4207 2.9216 0.2885 0.813 0.7966 1.705 1.4468 2.262 0.8632 0.576 1.5497 0.993 2.4917 0.952-1.9612-1.568-2.996-3.449-3.3229-5.6636-0.0103-0.1659-0.0307-0.3452 0.0291-0.301 0.2235 0.3543 0.2755 0.341 0.6636 0.5421-0.3346-1.2519 0.1122-2.6447 0.6584-3.6615 0.0683-0.0782 0.1425-0.1533 0.2155-0.2292l0.0342 0.0052c0.0122 0.1955 0.0354 0.3923 0.0581 0.5814-0.0042 0.0912 0.0539 0.2468 0.0718 0.3472-0.0134 0.0352-0.0864 0.2459-0.1145 0.5096-0.017 0.1045-0.0176 0.2071-0.0018 0.3079 0.0029 0.0198 0.0044 0.0386 0.0086 0.0581 0.0085 0.0355 0.0181 0.0713 0.0325 0.106 0.0304 0.0822 0.0709 0.1599 0.1368 0.2241 0.0244-0.1098 0.0741-0.1984 0.1419-0.2719 0.017-0.0184 0.0426-0.0296 0.0616-0.0462 0.0615-0.0521 0.1257-0.1024 0.195-0.1403 0.0136-0.0074 0.0138-5e-3 0.0273-0.0119 0.172-0.0878 0.3412-0.142 0.3421-0.142l0.0137-0.0136c0.0711-0.029 0.1428-0.0602 0.2086-0.0924 0.987-0.962 1.9204-1.1304 3.1638-1.033 0.6844 0 1.0741-0.1777 1.7513-0.4822 1.0388 0.4343 1.4848 1.1126 1.7508 2.2335 0.101 0.8424-1.253 2.8628-1.7508 3.5007-1e-4 0-0.0034 2e-3 -0.0034 2e-3h0.0034c0.0103 1e-3 1.5038-0.6659 2.0998-1.2315-0.425 3.2875-2.7895 5.3255-3.8511 5.7845 0.8205 0.056 1.9441-0.456 2.7171-0.928-0.353 0.378-0.7303 0.788-0.9658 0.928 0.9238-0.258 1.7978-0.352 2.3808-0.778 0 0 0.472-0.432 0.966-0.996 0.066-0.075 0.179-0.178 0.246-0.263 0.042-0.053 0.082-0.107 0.123-0.161 8e-3 -9e-3 0.016-0.018 0.023-0.027 1.039-1.272 1.546-2.853 1.508-4.2863 7e-3 -1.7372-0.699-3.2445-1.883-4.4911-0.856-0.9015-1.829-1.4544-2.705-1.7529-0.9069-0.2603-1.9736-0.3924-2.8803-0.3421-0.0908 0.0012-0.3426 0.0085-0.6858 0.0377-0.0402-0.0757 0.0098-0.3562 0.1077-0.4259-0.2147 0.0201-0.4124 0.2994-0.5951 0.4926-0.0308 6e-3 -0.0624 0.012-0.0907 0.0188 0.1646-0.2847 0.3324-0.605 0.5285-0.8602-0.6076 0.1134-0.8727 0.591-1.1698 1.0312-0.0857 0.0282-0.169 0.0625-0.2531 0.0941 0.2204-0.6359 0.6347-0.9839 1.2296-1.4759zm-1.0755 3.2776c0.1699-0.0032 0.3234 0.0257 0.3249 0.0257 0.0029 0 0.0766 0.2978-0.0633 0.5524-0.1399 0.2556-0.4658 0.3579-0.6464 0.2617-0.1846-0.0963-0.184-0.4183-0.0411-0.6739 0.069-0.1278 0.2559-0.1626 0.4259-0.1659z"/>
 <path style="fill:currentColor;opacity:.35" class="ColorScheme-Text" d="m9.5971 5.735c-0.4972 0.2029-0.9645 0.4241-1.5973 0.4241-0.0228 4e-4 -0.0456-2e-4 -0.0684-0.0017-1.1311-0.0886-1.6589-0.0184-2.4849 0.7867-0.0664 0.0646-0.1426 0.1184-0.2258 0.1591-0.0523 0.0255-0.1018 0.0447-0.1522 0.0666-0.0574 0.0357-0.1189 0.064-0.1829 0.0856l1.363 1.5306 4.3024-1.3528c0.035-0.1294 0.069-0.2768 0.074-0.2634-0.199-0.8076-0.435-1.1405-1.0279-1.4348zm-4.9681 1.6691c-0.1828 0.3845-0.6127 0.5911-1.0278 0.4703 0 0.23-0.0635 0.4802-0.0086 0.6858 0.09 0.3416-0.0341 0.7038-0.3146 0.9184 0.1677 0.5854 0.3836 1.1474 0.6669 1.6824l5.4333 1.666c0.0334-0.04 0.068-0.072 0.1009-0.113 0.341-0.429 0.6609-0.936 0.9239-1.51-8e-3 4e-3 -0.022 0.01-0.029 0.014-0.081 0.038-0.147 0.068-0.197 0.09-0.025 0.011-0.045 0.019-0.065 0.028-0.01 4e-3 -0.018 9e-3 -0.034 0.015-8e-3 3e-3 -0.017 6e-3 -0.04 0.014-0.011 4e-3 -0.0575 0.017-0.0578 0.017-1e-4 0-0.0786 0.019-0.0786 0.019-1e-4 0-0.2257 4e-3 -0.2532 5e-3 -0.678-0.081-1.0073-0.872-0.5866-1.4091 0.0024-3e-3 0.0097-0.0141 0.012-0.0171 0.2129-0.2743 0.6582-0.913 1.0142-1.546 0.099-0.1753 0.159-0.326 0.238-0.4909l-4.0774 1.2809z"/>
</svg>
