<svg xmlns="http://www.w3.org/2000/svg" width="16" height="16" version="1.1">
 <defs>
  <style id="current-color-scheme" type="text/css">
   .ColorScheme-Text { color:#4cbe99; } .ColorScheme-Highlight { color:#4285f4; } .ColorScheme-NeutralText { color:#ff9800; } .ColorScheme-PositiveText { color:#4caf50; } .ColorScheme-NegativeText { color:#f44336; }
  </style>
 </defs>
 <path style="fill:currentColor" class="ColorScheme-Text" d="M 2.0493164,1.0003724 C 1.4676164,1.0003724 1,1.4679887 1,2.0496889 V 13.951056 c 0,0.0257 0.010166,0.04826 0.011963,0.07348 0.121,-0.0499 0.2681056,-0.112741 0.3178711,-0.129884 0.627445,-0.216196 1.1636286,-0.421729 2.1345214,-0.818601 C 6.4788423,11.843819 7.741511,11.137455 8.479724,10.384401 8.88893,9.966969 9.045235,9.5607206 8.946276,9.1744405 8.884834,8.934603 8.792791,8.7889504 8.570299,8.5745868 8.238576,8.25498 7.2516511,7.9915612 6.1593466,7.5423597 5.2988923,7.1885071 5.0109088,7.0099957 5.0109088,6.8280046 5.0109088,6.7172357 5.1366171,6.549156 5.306563,6.4349388 5.6568047,6.1995515 6.3091309,5.8958123 7.3470911,5.8269778 9.1668771,5.7062934 10.551876,5.6639295 10.777181,5.4663816 c 0.06812,-0.059727 0.07251,-0.2281791 0.0086,-0.312744 -0.05286,-0.069883 -0.0605,-0.10661 -0.03588,-0.109375 0.02461,-0.00276 0.08067,0.028485 0.157226,0.095703 0.133709,0.1173958 0.163451,0.2206125 0.104248,0.3623048 -0.134393,0.32165 -0.763015,0.4612204 -1.96875,0.5485839 -1.162346,0.084219 -2.6758195,0.2016324 -2.6149055,0.4443364 0.040425,0.1610778 0.7684475,0.2693531 2.0918745,0.5605468 2.130304,0.4687289 3.298673,0.9693449 4.187012,1.412892 1.088262,0.543368 1.776097,1.3670335 2.177246,2.6079105 L 15,11.360236 V 2.0496888 C 15,1.4679887 14.532383,1.0003724 13.950683,1.0003724 Z M 1.0170898,14.067268 c 0.0075,0.0666 0.011482,0.134371 0.030761,0.196532 0.00867,0.02797 0.027869,0.0504 0.042725,0.0752 -0.034368,-0.08606 -0.06267,-0.176044 -0.073486,-0.271729 z"/>
</svg>
