<svg xmlns="http://www.w3.org/2000/svg" width="16" height="16" version="1.1">
 <defs>
  <style id="current-color-scheme" type="text/css">
   .ColorScheme-Text { color:#4cbe99; } .ColorScheme-Highlight { color:#4285f4; } .ColorScheme-NeutralText { color:#ff9800; } .ColorScheme-PositiveText { color:#4caf50; } .ColorScheme-NegativeText { color:#f44336; }
  </style>
 </defs>
 <path style="opacity:.35;fill:currentColor" class="ColorScheme-Text" d="M 6,3 A 4,4 0 0 0 2,7 4,4 0 0 0 2.0058594,7.171875 3,3 0 0 0 0,10 3,3 0 0 0 3,13 l 10,0 A 3,3 0 0 0 16,10 3,3 0 0 0 13.990234,7.171875 3,3 0 0 0 14,7 3,3 0 0 0 11,4 3,3 0 0 0 9.1992188,4.6054688 4,4 0 0 0 6,3 Z"/>
</svg>
